Data/ALL0041/F0041FFT.CSV

Record Length,1.024000e+03,,          0.00000,  22.41569,
Sample Interval,1.220703e+03,,       1220.70312,  19.21569,
Trigger Point,-0.000000000000e+00,,       2441.40625,  -1.18431,
,,,       3662.10938, -11.98431,
,,,       4882.81250, -16.78431,
,,,       6103.51562, -16.78431,
Source,FFT,,       7324.21875, -17.98431,
Vertical Units,dB,,       8544.92188, -17.98431,
Vertical Scale,1.000000e+01,,       9765.62500, -17.98431,
Vertical Offset,0.000000e+00,,      10986.32812, -17.98431,
Horizontal Units,Hz,,      12207.03125, -16.78431,
Horizontal Scale,1.250000e+05,,      13427.73438, -17.98431,
Pt Fmt,Y,,      14648.43750, -17.98431,
Yzero,2.201569e+01,,      15869.14062, -17.98431,
Probe Atten,1.000000e+00,,      17089.84375, -16.78431,
Model Number,TBS1202B-EDU,,      18310.54688, -14.78431,
Serial Number,C030451,,      19531.25000, -16.78431,
Firmware Version,FV:v4.06,,      20751.95312, -17.98431,
,,,21972.65624, -17.98431,
,,,23193.35936, -14.78431,
,,,24414.06248,  -9.18431,
,,,25634.76560,  -7.98431,
,,,26855.46872,  -9.98431,
,,,28076.17184, -12.78431,
,,,29296.87496, -17.98431,
,,,30517.57808, -17.98431,
,,,31738.28120, -17.98431,
,,,32958.98432, -17.98431,
,,,34179.68744, -17.98431,
,,,35400.39056, -17.98431,
,,,36621.09368, -16.78431,
,,,37841.79680, -17.98431,
,,,39062.49992, -17.98431,
,,,40283.20304, -17.98431,
,,,41503.90616, -17.98431,
,,,42724.60928, -14.78431,
,,,43945.31240, -14.78431,
,,,45166.01552, -17.98431,
,,,46386.71864, -17.98431,
,,,47607.42176, -17.98431,
,,,48828.12488, -16.78431,
,,,50048.82800, -17.98431,
,,,51269.53112, -16.78431,
,,,52490.23424, -17.98431,
,,,53710.93736, -17.98431,
,,,54931.64048, -17.98431,
,,,56152.34360, -17.98431,
,,,57373.04672, -17.98431,
,,,58593.74984, -11.58431,
,,,59814.45296, -13.98431,
,,,61035.15608, -16.78431,
,,,62255.85920, -17.98431,
,,,63476.56232, -17.98431,
,,,64697.26544, -16.78431,
,,,65917.96856, -12.78431,
,,,67138.67168, -13.98431,
,,,68359.37480, -16.78431,
,,,69580.07792, -17.98431,
,,,70800.78104, -14.38431,
,,,72021.48416, -14.38431,
,,,73242.18728, -17.98431,
,,,74462.89040, -14.78431,
,,,75683.59352, -11.58431,
,,,76904.29664, -17.98431,
,,,78124.99976, -16.78431,
,,,79345.70288, -17.98431,
,,,80566.40600, -17.98431,
,,,81787.10912, -17.98431,
,,,83007.81224, -17.98431,
,,,84228.51536, -17.98431,
,,,85449.21848, -17.98431,
,,,86669.92160, -16.78431,
,,,87890.62472, -17.98431,
,,,89111.32784, -16.78431,
,,,90332.03096, -16.78431,
,,,91552.73408, -17.98431,
,,,92773.43720, -13.98431,
,,,93994.14032, -11.58431,
,,,95214.84344,   0.01569,
,,,96435.54656,  10.01569,
,,,97656.24968,  40.81569,
,,,98876.95280,  48.01569,
,,,100097.65592,  43.21569,
,,,101318.35904,  12.81569,
,,,102539.06216,   1.61569,
,,,103759.76528,  -7.98431,
,,,104980.46840, -13.98431,
,,,106201.17152, -13.98431,
,,,107421.87464, -14.38431,
,,,108642.57776, -17.98431,
,,,109863.28088, -17.98431,
,,,111083.98400, -17.98431,
,,,112304.68712, -16.78431,
,,,113525.39024, -17.98431,
,,,114746.09336, -17.98431,
,,,115966.79648, -17.98431,
,,,117187.49960, -16.78431,
,,,118408.20272, -12.78431,
,,,119628.90584, -17.98431,
,,,120849.60896, -17.98431,
,,,122070.31208, -17.98431,
,,,123291.01520, -12.78431,
,,,124511.71832, -16.78431,
,,,125732.42144, -14.38431,
,,,126953.12456, -14.38431,
,,,128173.82768, -17.98431,
,,,129394.53080, -17.98431,
,,,130615.23392, -17.98431,
,,,131835.93704, -17.98431,
,,,133056.64016, -13.98431,
,,,134277.34328, -17.98431,
,,,135498.04640, -14.38431,
,,,136718.74952, -17.98431,
,,,137939.45264, -16.78431,
,,,139160.15576, -16.78431,
,,,140380.85888, -17.98431,
,,,141601.56200, -16.78431,
,,,142822.26512, -14.78431,
,,,144042.96824, -11.98431,
,,,145263.67136,  -9.98431,
,,,146484.37448, -16.78431,
,,,147705.07760, -17.98431,
,,,148925.78072, -17.98431,
,,,150146.48384, -17.98431,
,,,151367.18696, -13.98431,
,,,152587.89008, -13.98431,
,,,153808.59320, -13.98431,
,,,155029.29632, -12.78431,
,,,156249.99944, -17.98431,
,,,157470.70256, -17.98431,
,,,158691.40568, -17.98431,
,,,159912.10880, -17.98431,
,,,161132.81192, -16.78431,
,,,162353.51504, -14.38431,
,,,163574.21816, -11.58431,
,,,164794.92128, -17.98431,
,,,166015.62440, -17.98431,
,,,167236.32752, -17.98431,
,,,168457.03064, -17.98431,
,,,169677.73376, -17.98431,
,,,170898.43688, -16.78431,
,,,172119.14000, -17.98431,
,,,173339.84312, -17.98431,
,,,174560.54624, -17.98431,
,,,175781.24936, -16.78431,
,,,177001.95248, -14.78431,
,,,178222.65560, -12.78431,
,,,179443.35872, -17.98431,
,,,180664.06184, -17.98431,
,,,181884.76496, -16.78431,
,,,183105.46808, -17.98431,
,,,184326.17120, -17.98431,
,,,185546.87432, -17.98431,
,,,186767.57744, -13.98431,
,,,187988.28056, -11.58431,
,,,189208.98368, -17.98431,
,,,190429.68680, -17.98431,
,,,191650.38992, -16.78431,
,,,192871.09304, -16.78431,
,,,194091.79616, -17.98431,
,,,195312.49928, -17.98431,
,,,196533.20240,  -3.98431,
,,,197753.90552,   4.81569,
,,,198974.60864,   1.21569,
,,,200195.31176, -16.78431,
,,,201416.01488, -13.98431,
,,,202636.71800, -17.98431,
,,,203857.42112,  -9.98431,
,,,205078.12424, -12.78431,
,,,206298.82736, -17.98431,
,,,207519.53048, -17.98431,
,,,208740.23360, -17.98431,
,,,209960.93672, -17.98431,
,,,211181.63984, -14.38431,
,,,212402.34296, -12.78431,
,,,213623.04608, -16.78431,
,,,214843.74920, -17.98431,
,,,216064.45232, -17.98431,
,,,217285.15544, -17.98431,
,,,218505.85856, -17.98431,
,,,219726.56168, -17.98431,
,,,220947.26480, -16.78431,
,,,222167.96792, -17.98431,
,,,223388.67104, -17.98431,
,,,224609.37416, -16.78431,
,,,225830.07728, -13.98431,
,,,227050.78040, -12.78431,
,,,228271.48352, -10.78431,
,,,229492.18664, -14.78431,
,,,230712.88976, -16.78431,
,,,231933.59288, -11.58431,
,,,233154.29600, -11.58431,
,,,234374.99912, -13.98431,
,,,235595.70224, -14.78431,
,,,236816.40536, -16.78431,
,,,238037.10848, -17.98431,
,,,239257.81160, -17.98431,
,,,240478.51472, -17.98431,
,,,241699.21784, -17.98431,
,,,242919.92096, -17.98431,
,,,244140.62408, -16.78431,
,,,245361.32720, -17.98431,
,,,246582.03032, -13.98431,
,,,247802.73344, -16.78431,
,,,249023.43656, -17.98431,
,,,250244.13968, -16.78431,
,,,251464.84280, -14.38431,
,,,252685.54592, -13.98431,
,,,253906.24904, -12.78431,
,,,255126.95216, -14.78431,
,,,256347.65528, -13.98431,
,,,257568.35840, -17.98431,
,,,258789.06152, -14.38431,
,,,260009.76464, -17.98431,
,,,261230.46776, -17.98431,
,,,262451.17088, -16.78431,
,,,263671.87400, -16.78431,
,,,264892.57712, -17.98431,
,,,266113.28024, -17.98431,
,,,267333.98336, -17.98431,
,,,268554.68648, -14.78431,
,,,269775.38960, -17.98431,
,,,270996.09272, -10.78431,
,,,272216.79584,  -8.78431,
,,,273437.49896, -12.78431,
,,,274658.20208, -17.98431,
,,,275878.90520, -17.98431,
,,,277099.60832, -16.78431,
,,,278320.31144, -17.98431,
,,,279541.01456, -17.98431,
,,,280761.71768, -17.98431,
,,,281982.42080, -17.98431,
,,,283203.12392, -12.78431,
,,,284423.82704, -13.98431,
,,,285644.53016, -16.78431,
,,,286865.23328, -17.98431,
,,,288085.93640, -17.98431,
,,,289306.63952, -17.98431,
,,,290527.34264, -17.98431,
,,,291748.04576, -17.98431,
,,,292968.74888, -17.98431,
,,,294189.45200,  -8.38431,
,,,295410.15512,   2.81569,
,,,296630.85824,  13.21569,
,,,297851.56136,  10.41569,
,,,299072.26448,  -8.38431,
,,,300292.96760, -17.98431,
,,,301513.67072, -16.78431,
,,,302734.37384, -17.98431,
,,,303955.07696, -17.98431,
,,,305175.78008, -17.98431,
,,,306396.48320, -17.98431,
,,,307617.18632, -14.78431,
,,,308837.88944, -17.98431,
,,,310058.59256, -17.98431,
,,,311279.29568, -17.98431,
,,,312499.99880, -17.98431,
,,,313720.70192, -17.98431,
,,,314941.40504, -17.98431,
,,,316162.10816, -17.98431,
,,,317382.81128, -17.98431,
,,,318603.51440, -17.98431,
,,,319824.21752, -17.98431,
,,,321044.92064, -17.98431,
,,,322265.62376, -14.78431,
,,,323486.32688, -11.58431,
,,,324707.03000, -16.78431,
,,,325927.73312, -17.98431,
,,,327148.43624, -17.98431,
,,,328369.13936, -10.78431,
,,,329589.84248, -16.78431,
,,,330810.54560, -17.98431,
,,,332031.24872, -17.98431,
,,,333251.95184, -16.78431,
,,,334472.65496, -17.98431,
,,,335693.35808, -14.38431,
,,,336914.06120, -14.78431,
,,,338134.76432, -16.78431,
,,,339355.46744, -16.78431,
,,,340576.17056, -14.78431,
,,,341796.87368, -16.78431,
,,,343017.57680, -17.98431,
,,,344238.27992, -13.98431,
,,,345458.98304, -13.98431,
,,,346679.68616, -12.78431,
,,,347900.38928, -14.38431,
,,,349121.09240, -17.98431,
,,,350341.79552, -17.98431,
,,,351562.49864, -16.78431,
,,,352783.20176,  -8.78431,
,,,354003.90488,  -6.78431,
,,,355224.60800, -12.78431,
,,,356445.31112, -17.98431,
,,,357666.01424, -17.98431,
,,,358886.71736, -16.78431,
,,,360107.42048, -17.98431,
,,,361328.12360, -12.78431,
,,,362548.82672, -13.98431,
,,,363769.52984, -17.98431,
,,,364990.23296, -17.98431,
,,,366210.93608, -17.98431,
,,,367431.63920, -17.98431,
,,,368652.34232, -16.78431,
,,,369873.04544, -16.78431,
,,,371093.74856, -16.78431,
,,,372314.45168, -16.78431,
,,,373535.15480, -17.98431,
,,,374755.85792, -17.98431,
,,,375976.56104, -16.78431,
,,,377197.26416, -17.98431,
,,,378417.96728, -16.78431,
,,,379638.67040, -11.58431,
,,,380859.37352, -14.78431,
,,,382080.07664, -17.98431,
,,,383300.77976, -14.78431,
,,,384521.48288, -13.98431,
,,,385742.18600, -17.98431,
,,,386962.88912, -17.98431,
,,,388183.59224, -17.98431,
,,,389404.29536, -17.98431,
,,,390624.99848, -17.98431,
,,,391845.70160, -17.98431,
,,,393066.40472, -16.78431,
,,,394287.10784, -13.98431,
,,,395507.81096,  -9.98431,
,,,396728.51408, -17.98431,
,,,397949.21720, -17.98431,
,,,399169.92032, -17.98431,
,,,400390.62344, -17.98431,
,,,401611.32656, -17.98431,
,,,402832.02968, -17.98431,
,,,404052.73280, -11.98431,
,,,405273.43592, -13.98431,
,,,406494.13904, -16.78431,
,,,407714.84216, -17.98431,
,,,408935.54528, -17.98431,
,,,410156.24840, -17.98431,
,,,411376.95152, -16.78431,
,,,412597.65464, -16.78431,
,,,413818.35776, -17.98431,
,,,415039.06088, -14.78431,
,,,416259.76400, -13.98431,
,,,417480.46712, -14.38431,
,,,418701.17024, -12.78431,
,,,419921.87336, -16.78431,
,,,421142.57648, -17.98431,
,,,422363.27960, -16.78431,
,,,423583.98272, -16.78431,
,,,424804.68584, -14.38431,
,,,426025.38896, -17.98431,
,,,427246.09208, -17.98431,
,,,428466.79520, -14.78431,
,,,429687.49832, -14.78431,
,,,430908.20144, -17.98431,
,,,432128.90456, -17.98431,
,,,433349.60768, -17.98431,
,,,434570.31080, -17.98431,
,,,435791.01392, -17.98431,
,,,437011.71704, -17.98431,
,,,438232.42016, -16.78431,
,,,439453.12328, -14.78431,
,,,440673.82640, -17.98431,
,,,441894.52952, -17.98431,
,,,443115.23264, -17.98431,
,,,444335.93576, -17.98431,
,,,445556.63888, -17.98431,
,,,446777.34200, -17.98431,
,,,447998.04512, -16.78431,
,,,449218.74824, -17.98431,
,,,450439.45136, -16.78431,
,,,451660.15448, -17.98431,
,,,452880.85760, -16.78431,
,,,454101.56072, -11.58431,
,,,455322.26384, -13.98431,
,,,456542.96696, -17.98431,
,,,457763.67008, -17.98431,
,,,458984.37320, -17.98431,
,,,460205.07632, -17.98431,
,,,461425.77944, -17.98431,
,,,462646.48256, -17.98431,
,,,463867.18568, -16.78431,
,,,465087.88880, -17.98431,
,,,466308.59192, -16.78431,
,,,467529.29504, -16.78431,
,,,468749.99816, -17.98431,
,,,469970.70128, -16.78431,
,,,471191.40440, -16.78431,
,,,472412.10752, -17.98431,
,,,473632.81064, -17.98431,
,,,474853.51376, -14.38431,
,,,476074.21688, -16.78431,
,,,477294.92000, -13.98431,
,,,478515.62312, -14.78431,
,,,479736.32624, -17.98431,
,,,480957.02936, -17.98431,
,,,482177.73248, -16.78431,
,,,483398.43560, -14.38431,
,,,484619.13872, -17.98431,
,,,485839.84184, -16.78431,
,,,487060.54496, -17.98431,
,,,488281.24808, -17.98431,
,,,489501.95120, -17.98431,
,,,490722.65432, -17.98431,
,,,491943.35744, -17.98431,
,,,493164.06056, -14.78431,
,,,494384.76368,  -2.78431,
,,,495605.46680,  -3.98431,
,,,496826.16992, -16.78431,
,,,498046.87304, -17.98431,
,,,499267.57616, -14.78431,
,,,500488.27928, -17.98431,
,,,501708.98240, -17.98431,
,,,502929.68552, -17.98431,
,,,504150.38864, -16.78431,
,,,505371.09176, -14.38431,
,,,506591.79488, -11.58431,
,,,507812.49800, -16.78431,
,,,509033.20112, -17.98431,
,,,510253.90424, -17.98431,
,,,511474.60736, -17.98431,
,,,512695.31048, -17.98431,
,,,513916.01360, -17.98431,
,,,515136.71672, -17.98431,
,,,516357.41984, -14.78431,
,,,517578.12296, -17.98431,
,,,518798.82608, -17.98431,
,,,520019.52920, -17.98431,
,,,521240.23232, -17.98431,
,,,522460.93544, -13.98431,
,,,523681.63856, -16.78431,
,,,524902.34168, -17.98431,
,,,526123.04480, -16.78431,
,,,527343.74792, -17.98431,
,,,528564.45104, -17.98431,
,,,529785.15416, -17.98431,
,,,531005.85728, -17.98431,
,,,532226.56040, -16.78431,
,,,533447.26352, -16.78431,
,,,534667.96664, -17.98431,
,,,535888.66976, -17.98431,
,,,537109.37288, -14.78431,
,,,538330.07600, -17.98431,
,,,539550.77912, -17.98431,
,,,540771.48224, -17.98431,
,,,541992.18536, -17.98431,
,,,543212.88848, -17.98431,
,,,544433.59160, -16.78431,
,,,545654.29472, -16.78431,
,,,546874.99784, -17.98431,
,,,548095.70096, -17.98431,
,,,549316.40408, -14.38431,
,,,550537.10720, -14.38431,
,,,551757.81032, -16.78431,
,,,552978.51344, -17.98431,
,,,554199.21656, -17.98431,
,,,555419.91968, -17.98431,
,,,556640.62280, -16.78431,
,,,557861.32592, -11.58431,
,,,559082.02904, -13.98431,
,,,560302.73216, -16.78431,
,,,561523.43528, -14.78431,
,,,562744.13840, -17.98431,
,,,563964.84152, -16.78431,
,,,565185.54464, -16.78431,
,,,566406.24776, -10.78431,
,,,567626.95088, -13.98431,
,,,568847.65400, -17.98431,
,,,570068.35712, -17.98431,
,,,571289.06024, -17.98431,
,,,572509.76336, -17.98431,
,,,573730.46648, -16.78431,
,,,574951.16960, -16.78431,
,,,576171.87272, -17.98431,
,,,577392.57584, -17.98431,
,,,578613.27896, -17.98431,
,,,579833.98208, -16.78431,
,,,581054.68520, -13.98431,
,,,582275.38832, -17.98431,
,,,583496.09144, -13.98431,
,,,584716.79456, -17.98431,
,,,585937.49768, -17.98431,
,,,587158.20080, -14.78431,
,,,588378.90392, -16.78431,
,,,589599.60704, -17.98431,
,,,590820.31016, -17.98431,
,,,592041.01328, -17.98431,
,,,593261.71640, -17.98431,
,,,594482.41952, -17.98431,
,,,595703.12264, -17.98431,
,,,596923.82576, -17.98431,
,,,598144.52888, -17.98431,
,,,599365.23200, -17.98431,
,,,600585.93512, -17.98431,
,,,601806.63824, -11.58431,
,,,603027.34136, -11.98431,
,,,604248.04448, -17.98431,
,,,605468.74760, -13.98431,
,,,606689.45072, -14.38431,
,,,607910.15384, -17.98431,
,,,609130.85696, -17.98431,
,,,610351.56008, -17.98431,
,,,611572.26320, -16.78431,
,,,612792.96632, -16.78431,
,,,614013.66944, -11.58431,
,,,615234.37256, -14.78431,
,,,616455.07568, -14.38431,
,,,617675.77880, -17.98431,
,,,618896.48192, -17.98431,
,,,620117.18504, -17.98431,
,,,621337.88816, -17.98431,
,,,622558.59128, -16.78431,
,,,623779.29440, -17.98431,
,,,624999.99752, -17.98431,
,,,626220.70064, -17.98431,
,,,627441.40376, -17.98431,
,,,628662.10688, -16.78431,
,,,629882.81000, -13.98431,
,,,631103.51312, -14.38431,
,,,632324.21624, -12.78431,
,,,633544.91936, -11.58431,
,,,634765.62248, -12.78431,
,,,635986.32560, -13.98431,
,,,637207.02872, -13.98431,
,,,638427.73184, -13.98431,
,,,639648.43496, -13.98431,
,,,640869.13808, -10.78431,
,,,642089.84120, -10.78431,
,,,643310.54432, -17.98431,
,,,644531.24744, -17.98431,
,,,645751.95056, -16.78431,
,,,646972.65368, -16.78431,
,,,648193.35680, -13.98431,
,,,649414.05992, -14.38431,
,,,650634.76304, -17.98431,
,,,651855.46616, -17.98431,
,,,653076.16928, -17.98431,
,,,654296.87240, -17.98431,
,,,655517.57552, -17.98431,
,,,656738.27864, -16.78431,
,,,657958.98176, -17.98431,
,,,659179.68488, -17.98431,
,,,660400.38800, -14.38431,
,,,661621.09112, -10.78431,
,,,662841.79424, -10.78431,
,,,664062.49736, -17.98431,
,,,665283.20048, -17.98431,
,,,666503.90360, -17.98431,
,,,667724.60672, -17.98431,
,,,668945.30984, -17.98431,
,,,670166.01296, -14.38431,
,,,671386.71608, -17.98431,
,,,672607.41920, -17.98431,
,,,673828.12232, -17.98431,
,,,675048.82544, -17.98431,
,,,676269.52856, -13.98431,
,,,677490.23168, -17.98431,
,,,678710.93480, -17.98431,
,,,679931.63792, -14.78431,
,,,681152.34104, -17.98431,
,,,682373.04416, -17.98431,
,,,683593.74728, -17.98431,
,,,684814.45040, -17.98431,
,,,686035.15352, -17.98431,
,,,687255.85664, -14.78431,
,,,688476.55976, -16.78431,
,,,689697.26288, -14.38431,
,,,690917.96600, -16.78431,
,,,692138.66912,  -9.18431,
,,,693359.37224,  -6.78431,
,,,694580.07536, -17.98431,
,,,695800.77848, -16.78431,
,,,697021.48160, -17.98431,
,,,698242.18472, -17.98431,
,,,699462.88784, -17.98431,
,,,700683.59096, -17.98431,
,,,701904.29408, -16.78431,
,,,703124.99720, -17.98431,
,,,704345.70032, -17.98431,
,,,705566.40344, -14.38431,
,,,706787.10656, -16.78431,
,,,708007.80968, -17.98431,
,,,709228.51280, -17.98431,
,,,710449.21592, -17.98431,
,,,711669.91904, -17.98431,
,,,712890.62216, -17.98431,
,,,714111.32528, -17.98431,
,,,715332.02840, -13.98431,
,,,716552.73152, -13.98431,
,,,717773.43464, -11.58431,
,,,718994.13776, -13.98431,
,,,720214.84088, -16.78431,
,,,721435.54400, -14.38431,
,,,722656.24712, -16.78431,
,,,723876.95024, -17.98431,
,,,725097.65336, -17.98431,
,,,726318.35648, -14.78431,
,,,727539.05960, -17.98431,
,,,728759.76272, -17.98431,
,,,729980.46584, -17.98431,
,,,731201.16896, -17.98431,
,,,732421.87208, -16.78431,
,,,733642.57520, -14.38431,
,,,734863.27832, -16.78431,
,,,736083.98144, -11.58431,
,,,737304.68456, -14.78431,
,,,738525.38768, -16.78431,
,,,739746.09080, -17.98431,
,,,740966.79392, -16.78431,
,,,742187.49704, -14.38431,
,,,743408.20016, -17.98431,
,,,744628.90328, -17.98431,
,,,745849.60640, -17.98431,
,,,747070.30952, -17.98431,
,,,748291.01264, -11.58431,
,,,749511.71576, -12.78431,
,,,750732.41888, -16.78431,
,,,751953.12200, -17.98431,
,,,753173.82512, -13.98431,
,,,754394.52824, -16.78431,
,,,755615.23136, -16.78431,
,,,756835.93448, -11.98431,
,,,758056.63760, -13.98431,
,,,759277.34072, -13.98431,
,,,760498.04384, -11.58431,
,,,761718.74696, -14.38431,
,,,762939.45008, -16.78431,
,,,764160.15320, -17.98431,
,,,765380.85632, -17.98431,
,,,766601.55944, -17.98431,
,,,767822.26256, -13.98431,
,,,769042.96568, -13.98431,
,,,770263.66880, -17.98431,
,,,771484.37192, -17.98431,
,,,772705.07504, -17.98431,
,,,773925.77816, -17.98431,
,,,775146.48128, -17.98431,
,,,776367.18440, -16.78431,
,,,777587.88752, -14.38431,
,,,778808.59064, -13.98431,
,,,780029.29376, -14.38431,
,,,781249.99688, -17.98431,
,,,782470.70000, -16.78431,
,,,783691.40312, -17.98431,
,,,784912.10624, -17.98431,
,,,786132.80936, -16.78431,
,,,787353.51248, -17.98431,
,,,788574.21560, -17.98431,
,,,789794.91872, -17.98431,
,,,791015.62184, -17.98431,
,,,792236.32496, -11.58431,
,,,793457.02808, -13.98431,
,,,794677.73120, -16.78431,
,,,795898.43432, -17.98431,
,,,797119.13744, -17.98431,
,,,798339.84056, -17.98431,
,,,799560.54368, -16.78431,
,,,800781.24680, -17.98431,
,,,802001.94992, -17.98431,
,,,803222.65304, -17.98431,
,,,804443.35616, -17.98431,
,,,805664.05928, -14.38431,
,,,806884.76240, -12.78431,
,,,808105.46552,  -9.98431,
,,,809326.16864, -13.98431,
,,,810546.87176, -17.98431,
,,,811767.57488, -17.98431,
,,,812988.27800, -17.98431,
,,,814208.98112, -17.98431,
,,,815429.68424, -17.98431,
,,,816650.38736, -11.58431,
,,,817871.09048, -14.38431,
,,,819091.79360, -17.98431,
,,,820312.49672, -16.78431,
,,,821533.19984, -17.98431,
,,,822753.90296, -16.78431,
,,,823974.60608, -16.78431,
,,,825195.30920, -13.98431,
,,,826416.01232, -13.98431,
,,,827636.71544, -16.78431,
,,,828857.41856, -17.98431,
,,,830078.12168, -17.98431,
,,,831298.82480, -17.98431,
,,,832519.52792, -17.98431,
,,,833740.23104, -17.98431,
,,,834960.93416, -13.98431,
,,,836181.63728, -17.98431,
,,,837402.34040, -12.78431,
,,,838623.04352, -16.78431,
,,,839843.74664, -17.98431,
,,,841064.44976, -17.98431,
,,,842285.15288, -17.98431,
,,,843505.85600, -17.98431,
,,,844726.55912, -17.98431,
,,,845947.26224, -17.98431,
,,,847167.96536, -17.98431,
,,,848388.66848, -16.78431,
,,,849609.37160,  -9.98431,
,,,850830.07472,  -8.78431,
,,,852050.77784, -13.98431,
,,,853271.48096, -16.78431,
,,,854492.18408, -16.78431,
