Data/ALL0035/F0035FFT.CSV

Record Length,1.024000e+03,,          0.00000,  46.81569,
Sample Interval,1.220703e+03,,       1220.70312,  48.01569,
Trigger Point,-0.000000000000e+00,,       2441.40625,  38.81569,
,,,       3662.10938,  16.01569,
,,,       4882.81250,  -1.18431,
,,,       6103.51562, -17.98431,
Source,FFT,,       7324.21875,  -0.78431,
Vertical Units,dB,,       8544.92188, -17.98431,
Vertical Scale,1.000000e+01,,       9765.62500, -17.98431,
Vertical Offset,0.000000e+00,,      10986.32812, -10.78431,
Horizontal Units,Hz,,      12207.03125, -16.78431,
Horizontal Scale,1.250000e+05,,      13427.73438, -17.98431,
Pt Fmt,Y,,      14648.43750, -17.98431,
Yzero,2.201569e+01,,      15869.14062,  -8.78431,
Probe Atten,1.000000e+00,,      17089.84375,  -6.78431,
Model Number,TBS1202B-EDU,,      18310.54688, -16.78431,
Serial Number,C030451,,      19531.25000, -16.78431,
Firmware Version,FV:v4.06,,      20751.95312, -13.98431,
,,,21972.65624, -17.98431,
,,,23193.35936, -17.98431,
,,,24414.06248, -11.58431,
,,,25634.76560, -11.58431,
,,,26855.46872, -17.98431,
,,,28076.17184, -17.98431,
,,,29296.87496, -13.98431,
,,,30517.57808, -16.78431,
,,,31738.28120, -17.98431,
,,,32958.98432, -17.98431,
,,,34179.68744, -17.98431,
,,,35400.39056, -17.98431,
,,,36621.09368, -12.78431,
,,,37841.79680, -13.98431,
,,,39062.49992, -17.98431,
,,,40283.20304, -17.98431,
,,,41503.90616, -13.98431,
,,,42724.60928, -14.38431,
,,,43945.31240, -16.78431,
,,,45166.01552, -16.78431,
,,,46386.71864, -17.98431,
,,,47607.42176, -17.98431,
,,,48828.12488, -17.98431,
,,,50048.82800, -16.78431,
,,,51269.53112, -13.98431,
,,,52490.23424, -17.98431,
,,,53710.93736, -17.98431,
,,,54931.64048, -17.98431,
,,,56152.34360, -17.98431,
,,,57373.04672, -16.78431,
,,,58593.74984, -16.78431,
,,,59814.45296, -17.98431,
,,,61035.15608, -17.98431,
,,,62255.85920, -17.98431,
,,,63476.56232, -17.98431,
,,,64697.26544, -17.98431,
,,,65917.96856, -17.98431,
,,,67138.67168, -17.98431,
,,,68359.37480, -13.98431,
,,,69580.07792, -16.78431,
,,,70800.78104, -16.78431,
,,,72021.48416, -14.78431,
,,,73242.18728, -16.78431,
,,,74462.89040, -17.98431,
,,,75683.59352, -16.78431,
,,,76904.29664, -12.78431,
,,,78124.99976, -17.98431,
,,,79345.70288, -17.98431,
,,,80566.40600, -17.98431,
,,,81787.10912, -17.98431,
,,,83007.81224, -17.98431,
,,,84228.51536, -16.78431,
,,,85449.21848, -17.98431,
,,,86669.92160, -17.98431,
,,,87890.62472, -17.98431,
,,,89111.32784, -17.98431,
,,,90332.03096, -17.98431,
,,,91552.73408, -17.98431,
,,,92773.43720, -17.98431,
,,,93994.14032, -17.98431,
,,,95214.84344, -16.78431,
,,,96435.54656, -17.98431,
,,,97656.24968, -17.98431,
,,,98876.95280, -17.98431,
,,,100097.65592, -14.38431,
,,,101318.35904, -11.58431,
,,,102539.06216, -13.98431,
,,,103759.76528, -17.98431,
,,,104980.46840, -17.98431,
,,,106201.17152, -17.98431,
,,,107421.87464, -17.98431,
,,,108642.57776, -16.78431,
,,,109863.28088, -11.98431,
,,,111083.98400, -11.58431,
,,,112304.68712, -12.78431,
,,,113525.39024, -17.98431,
,,,114746.09336, -14.38431,
,,,115966.79648, -17.98431,
,,,117187.49960, -17.98431,
,,,118408.20272, -13.98431,
,,,119628.90584, -12.78431,
,,,120849.60896, -14.38431,
,,,122070.31208, -13.98431,
,,,123291.01520, -17.98431,
,,,124511.71832, -17.98431,
,,,125732.42144, -14.78431,
,,,126953.12456, -17.98431,
,,,128173.82768, -17.98431,
,,,129394.53080, -16.78431,
,,,130615.23392, -17.98431,
,,,131835.93704, -17.98431,
,,,133056.64016, -14.38431,
,,,134277.34328, -17.98431,
,,,135498.04640, -17.98431,
,,,136718.74952, -17.98431,
,,,137939.45264, -16.78431,
,,,139160.15576, -17.98431,
,,,140380.85888, -16.78431,
,,,141601.56200, -16.78431,
,,,142822.26512, -17.98431,
,,,144042.96824, -12.78431,
,,,145263.67136, -16.78431,
,,,146484.37448, -17.98431,
,,,147705.07760, -17.98431,
,,,148925.78072, -16.78431,
,,,150146.48384, -16.78431,
,,,151367.18696, -11.58431,
,,,152587.89008, -16.78431,
,,,153808.59320, -13.98431,
,,,155029.29632, -17.98431,
,,,156249.99944, -17.98431,
,,,157470.70256, -17.98431,
,,,158691.40568, -16.78431,
,,,159912.10880, -16.78431,
,,,161132.81192, -17.98431,
,,,162353.51504, -17.98431,
,,,163574.21816, -17.98431,
,,,164794.92128, -17.98431,
,,,166015.62440, -17.98431,
,,,167236.32752, -13.98431,
,,,168457.03064, -16.78431,
,,,169677.73376, -17.98431,
,,,170898.43688, -17.98431,
,,,172119.14000, -17.98431,
,,,173339.84312, -16.78431,
,,,174560.54624, -14.78431,
,,,175781.24936,  -9.98431,
,,,177001.95248, -12.78431,
,,,178222.65560, -17.98431,
,,,179443.35872, -17.98431,
,,,180664.06184, -17.98431,
,,,181884.76496, -17.98431,
,,,183105.46808, -17.98431,
,,,184326.17120, -16.78431,
,,,185546.87432, -17.98431,
,,,186767.57744, -17.98431,
,,,187988.28056, -17.98431,
,,,189208.98368, -14.38431,
,,,190429.68680, -16.78431,
,,,191650.38992, -12.78431,
,,,192871.09304, -16.78431,
,,,194091.79616, -17.98431,
,,,195312.49928, -16.78431,
,,,196533.20240, -16.78431,
,,,197753.90552, -17.98431,
,,,198974.60864, -16.78431,
,,,200195.31176, -17.98431,
,,,201416.01488, -12.78431,
,,,202636.71800, -11.58431,
,,,203857.42112, -17.98431,
,,,205078.12424, -17.98431,
,,,206298.82736, -17.98431,
,,,207519.53048, -17.98431,
,,,208740.23360, -17.98431,
,,,209960.93672, -17.98431,
,,,211181.63984, -17.98431,
,,,212402.34296, -17.98431,
,,,213623.04608, -17.98431,
,,,214843.74920, -16.78431,
,,,216064.45232, -16.78431,
,,,217285.15544, -17.98431,
,,,218505.85856, -17.98431,
,,,219726.56168, -17.98431,
,,,220947.26480, -17.98431,
,,,222167.96792, -17.98431,
,,,223388.67104, -16.78431,
,,,224609.37416, -17.98431,
,,,225830.07728, -17.98431,
,,,227050.78040, -17.98431,
,,,228271.48352, -17.98431,
,,,229492.18664, -16.78431,
,,,230712.88976, -11.58431,
,,,231933.59288, -10.78431,
,,,233154.29600, -17.98431,
,,,234374.99912, -17.98431,
,,,235595.70224, -17.98431,
,,,236816.40536, -17.98431,
,,,238037.10848, -16.78431,
,,,239257.81160, -16.78431,
,,,240478.51472, -17.98431,
,,,241699.21784, -17.98431,
,,,242919.92096, -17.98431,
,,,244140.62408, -16.78431,
,,,245361.32720, -17.98431,
,,,246582.03032, -17.98431,
,,,247802.73344, -16.78431,
,,,249023.43656, -17.98431,
,,,250244.13968, -11.98431,
,,,251464.84280,  -9.98431,
,,,252685.54592, -10.78431,
,,,253906.24904, -16.78431,
,,,255126.95216, -17.98431,
,,,256347.65528, -17.98431,
,,,257568.35840, -17.98431,
,,,258789.06152, -17.98431,
,,,260009.76464, -17.98431,
,,,261230.46776, -17.98431,
,,,262451.17088, -17.98431,
,,,263671.87400, -17.98431,
,,,264892.57712, -17.98431,
,,,266113.28024, -17.98431,
,,,267333.98336, -17.98431,
,,,268554.68648, -17.98431,
,,,269775.38960, -17.98431,
,,,270996.09272, -17.98431,
,,,272216.79584, -16.78431,
,,,273437.49896, -17.98431,
,,,274658.20208, -17.98431,
,,,275878.90520, -17.98431,
,,,277099.60832, -11.58431,
,,,278320.31144, -13.98431,
,,,279541.01456, -17.98431,
,,,280761.71768, -17.98431,
,,,281982.42080, -12.78431,
,,,283203.12392, -17.98431,
,,,284423.82704, -17.98431,
,,,285644.53016, -16.78431,
,,,286865.23328, -14.38431,
,,,288085.93640, -17.98431,
,,,289306.63952, -17.98431,
,,,290527.34264, -17.98431,
,,,291748.04576, -16.78431,
,,,292968.74888, -16.78431,
,,,294189.45200, -16.78431,
,,,295410.15512, -17.98431,
,,,296630.85824, -17.98431,
,,,297851.56136, -17.98431,
,,,299072.26448, -11.98431,
,,,300292.96760, -11.58431,
,,,301513.67072, -17.98431,
,,,302734.37384, -16.78431,
,,,303955.07696, -17.98431,
,,,305175.78008, -17.98431,
,,,306396.48320, -16.78431,
,,,307617.18632, -17.98431,
,,,308837.88944, -16.78431,
,,,310058.59256, -14.38431,
,,,311279.29568, -17.98431,
,,,312499.99880, -17.98431,
,,,313720.70192, -16.78431,
,,,314941.40504, -16.78431,
,,,316162.10816, -17.98431,
,,,317382.81128, -17.98431,
,,,318603.51440, -17.98431,
,,,319824.21752, -17.98431,
,,,321044.92064, -16.78431,
,,,322265.62376, -17.98431,
,,,323486.32688, -17.98431,
,,,324707.03000, -16.78431,
,,,325927.73312, -13.98431,
,,,327148.43624, -16.78431,
,,,328369.13936, -12.78431,
,,,329589.84248, -16.78431,
,,,330810.54560, -17.98431,
,,,332031.24872, -17.98431,
,,,333251.95184, -17.98431,
,,,334472.65496, -17.98431,
,,,335693.35808, -16.78431,
,,,336914.06120, -11.58431,
,,,338134.76432,  -8.78431,
,,,339355.46744, -11.58431,
,,,340576.17056, -17.98431,
,,,341796.87368, -14.38431,
,,,343017.57680, -17.98431,
,,,344238.27992, -17.98431,
,,,345458.98304, -17.98431,
,,,346679.68616, -17.98431,
,,,347900.38928, -17.98431,
,,,349121.09240, -14.78431,
,,,350341.79552, -16.78431,
,,,351562.49864, -17.98431,
,,,352783.20176, -12.78431,
,,,354003.90488,  -9.98431,
,,,355224.60800, -13.98431,
,,,356445.31112, -14.38431,
,,,357666.01424, -17.98431,
,,,358886.71736, -17.98431,
,,,360107.42048, -13.98431,
,,,361328.12360, -16.78431,
,,,362548.82672, -17.98431,
,,,363769.52984, -17.98431,
,,,364990.23296, -17.98431,
,,,366210.93608, -17.98431,
,,,367431.63920, -17.98431,
,,,368652.34232, -16.78431,
,,,369873.04544, -17.98431,
,,,371093.74856, -16.78431,
,,,372314.45168, -17.98431,
,,,373535.15480, -17.98431,
,,,374755.85792, -17.98431,
,,,375976.56104, -17.98431,
,,,377197.26416, -17.98431,
,,,378417.96728, -13.98431,
,,,379638.67040, -17.98431,
,,,380859.37352, -17.98431,
,,,382080.07664, -17.98431,
,,,383300.77976, -17.98431,
,,,384521.48288, -17.98431,
,,,385742.18600, -17.98431,
,,,386962.88912, -17.98431,
,,,388183.59224, -16.78431,
,,,389404.29536, -17.98431,
,,,390624.99848, -16.78431,
,,,391845.70160, -17.98431,
,,,393066.40472, -17.98431,
,,,394287.10784, -14.38431,
,,,395507.81096, -17.98431,
,,,396728.51408, -17.98431,
,,,397949.21720, -17.98431,
,,,399169.92032, -13.98431,
,,,400390.62344, -17.98431,
,,,401611.32656, -16.78431,
,,,402832.02968, -16.78431,
,,,404052.73280,  -9.98431,
,,,405273.43592, -13.98431,
,,,406494.13904, -17.98431,
,,,407714.84216, -17.98431,
,,,408935.54528, -17.98431,
,,,410156.24840, -17.98431,
,,,411376.95152, -17.98431,
,,,412597.65464, -16.78431,
,,,413818.35776, -16.78431,
,,,415039.06088, -17.98431,
,,,416259.76400, -17.98431,
,,,417480.46712, -17.98431,
,,,418701.17024, -16.78431,
,,,419921.87336, -17.98431,
,,,421142.57648, -17.98431,
,,,422363.27960, -16.78431,
,,,423583.98272, -17.98431,
,,,424804.68584, -17.98431,
,,,426025.38896, -14.78431,
,,,427246.09208, -16.78431,
,,,428466.79520, -12.78431,
,,,429687.49832, -16.78431,
,,,430908.20144, -17.98431,
,,,432128.90456, -17.98431,
,,,433349.60768, -16.78431,
,,,434570.31080, -17.98431,
,,,435791.01392, -16.78431,
,,,437011.71704, -16.78431,
,,,438232.42016, -17.98431,
,,,439453.12328, -14.78431,
,,,440673.82640, -17.98431,
,,,441894.52952, -17.98431,
,,,443115.23264, -17.98431,
,,,444335.93576, -17.98431,
,,,445556.63888, -17.98431,
,,,446777.34200, -17.98431,
,,,447998.04512, -17.98431,
,,,449218.74824, -17.98431,
,,,450439.45136, -16.78431,
,,,451660.15448, -17.98431,
,,,452880.85760, -16.78431,
,,,454101.56072, -17.98431,
,,,455322.26384, -16.78431,
,,,456542.96696, -17.98431,
,,,457763.67008, -12.78431,
,,,458984.37320, -11.58431,
,,,460205.07632, -16.78431,
,,,461425.77944, -16.78431,
,,,462646.48256, -16.78431,
,,,463867.18568, -17.98431,
,,,465087.88880, -13.98431,
,,,466308.59192, -11.98431,
,,,467529.29504, -16.78431,
,,,468749.99816, -17.98431,
,,,469970.70128, -17.98431,
,,,471191.40440, -17.98431,
,,,472412.10752, -16.78431,
,,,473632.81064, -11.58431,
,,,474853.51376, -16.78431,
,,,476074.21688, -17.98431,
,,,477294.92000, -17.98431,
,,,478515.62312, -16.78431,
,,,479736.32624, -17.98431,
,,,480957.02936, -17.98431,
,,,482177.73248, -12.78431,
,,,483398.43560, -14.38431,
,,,484619.13872, -17.98431,
,,,485839.84184, -17.98431,
,,,487060.54496, -17.98431,
,,,488281.24808, -17.98431,
,,,489501.95120, -14.38431,
,,,490722.65432, -14.38431,
,,,491943.35744, -17.98431,
,,,493164.06056, -17.98431,
,,,494384.76368, -17.98431,
,,,495605.46680, -17.98431,
,,,496826.16992, -17.98431,
,,,498046.87304, -17.98431,
,,,499267.57616, -17.98431,
,,,500488.27928, -17.98431,
,,,501708.98240, -16.78431,
,,,502929.68552, -17.98431,
,,,504150.38864, -17.98431,
,,,505371.09176, -17.98431,
,,,506591.79488, -17.98431,
,,,507812.49800, -17.98431,
,,,509033.20112, -17.98431,
,,,510253.90424, -17.98431,
,,,511474.60736, -17.98431,
,,,512695.31048, -17.98431,
,,,513916.01360, -13.98431,
,,,515136.71672, -14.38431,
,,,516357.41984, -17.98431,
,,,517578.12296, -16.78431,
,,,518798.82608, -11.58431,
,,,520019.52920, -17.98431,
,,,521240.23232, -16.78431,
,,,522460.93544, -17.98431,
,,,523681.63856, -14.78431,
,,,524902.34168, -14.78431,
,,,526123.04480, -16.78431,
,,,527343.74792, -16.78431,
,,,528564.45104, -17.98431,
,,,529785.15416, -13.98431,
,,,531005.85728, -10.78431,
,,,532226.56040, -14.38431,
,,,533447.26352, -17.98431,
,,,534667.96664, -16.78431,
,,,535888.66976, -14.78431,
,,,537109.37288, -17.98431,
,,,538330.07600, -17.98431,
,,,539550.77912, -17.98431,
,,,540771.48224, -16.78431,
,,,541992.18536, -14.78431,
,,,543212.88848, -16.78431,
,,,544433.59160, -16.78431,
,,,545654.29472, -13.98431,
,,,546874.99784, -14.38431,
,,,548095.70096, -13.98431,
,,,549316.40408, -17.98431,
,,,550537.10720, -14.38431,
,,,551757.81032, -13.98431,
,,,552978.51344, -11.58431,
,,,554199.21656, -10.78431,
,,,555419.91968, -16.78431,
,,,556640.62280,  -9.98431,
,,,557861.32592, -14.38431,
,,,559082.02904, -17.98431,
,,,560302.73216, -16.78431,
,,,561523.43528, -17.98431,
,,,562744.13840, -17.98431,
,,,563964.84152, -17.98431,
,,,565185.54464, -17.98431,
,,,566406.24776, -16.78431,
,,,567626.95088, -14.78431,
,,,568847.65400, -17.98431,
,,,570068.35712, -17.98431,
,,,571289.06024, -17.98431,
,,,572509.76336, -17.98431,
,,,573730.46648, -17.98431,
,,,574951.16960, -16.78431,
,,,576171.87272, -16.78431,
,,,577392.57584, -17.98431,
,,,578613.27896, -17.98431,
,,,579833.98208, -17.98431,
,,,581054.68520,  -9.98431,
,,,582275.38832, -11.98431,
,,,583496.09144, -17.98431,
,,,584716.79456, -17.98431,
,,,585937.49768, -16.78431,
,,,587158.20080, -17.98431,
,,,588378.90392, -17.98431,
,,,589599.60704, -17.98431,
,,,590820.31016, -16.78431,
,,,592041.01328, -17.98431,
,,,593261.71640, -16.78431,
,,,594482.41952, -17.98431,
,,,595703.12264, -14.78431,
,,,596923.82576, -16.78431,
,,,598144.52888, -17.98431,
,,,599365.23200, -17.98431,
,,,600585.93512, -17.98431,
,,,601806.63824, -17.98431,
,,,603027.34136, -17.98431,
,,,604248.04448, -17.98431,
,,,605468.74760, -17.98431,
,,,606689.45072, -12.78431,
,,,607910.15384,  -9.98431,
,,,609130.85696, -17.98431,
,,,610351.56008, -17.98431,
,,,611572.26320, -16.78431,
,,,612792.96632, -17.98431,
,,,614013.66944, -17.98431,
,,,615234.37256, -17.98431,
,,,616455.07568, -17.98431,
,,,617675.77880, -17.98431,
,,,618896.48192, -17.98431,
,,,620117.18504, -17.98431,
,,,621337.88816, -16.78431,
,,,622558.59128, -16.78431,
,,,623779.29440, -17.98431,
,,,624999.99752, -17.98431,
,,,626220.70064, -17.98431,
,,,627441.40376, -17.98431,
,,,628662.10688, -17.98431,
,,,629882.81000, -17.98431,
,,,631103.51312, -14.78431,
,,,632324.21624, -17.98431,
,,,633544.91936, -17.98431,
,,,634765.62248, -14.38431,
,,,635986.32560, -13.98431,
,,,637207.02872, -16.78431,
,,,638427.73184, -16.78431,
,,,639648.43496, -17.98431,
,,,640869.13808, -16.78431,
,,,642089.84120, -14.38431,
,,,643310.54432, -17.98431,
,,,644531.24744, -17.98431,
,,,645751.95056, -17.98431,
,,,646972.65368, -17.98431,
,,,648193.35680, -14.38431,
,,,649414.05992, -17.98431,
,,,650634.76304, -17.98431,
,,,651855.46616, -11.58431,
,,,653076.16928, -11.58431,
,,,654296.87240, -16.78431,
,,,655517.57552, -16.78431,
,,,656738.27864, -14.78431,
,,,657958.98176, -17.98431,
,,,659179.68488, -17.98431,
,,,660400.38800, -17.98431,
,,,661621.09112, -17.98431,
,,,662841.79424, -17.98431,
,,,664062.49736, -17.98431,
,,,665283.20048, -16.78431,
,,,666503.90360, -16.78431,
,,,667724.60672, -17.98431,
,,,668945.30984, -17.98431,
,,,670166.01296, -17.98431,
,,,671386.71608, -17.98431,
,,,672607.41920, -16.78431,
,,,673828.12232, -17.98431,
,,,675048.82544, -13.98431,
,,,676269.52856, -16.78431,
,,,677490.23168, -17.98431,
,,,678710.93480, -17.98431,
,,,679931.63792, -17.98431,
,,,681152.34104, -16.78431,
,,,682373.04416, -10.78431,
,,,683593.74728, -12.78431,
,,,684814.45040, -17.98431,
,,,686035.15352, -17.98431,
,,,687255.85664, -17.98431,
,,,688476.55976, -14.78431,
,,,689697.26288, -12.78431,
,,,690917.96600, -17.98431,
,,,692138.66912, -16.78431,
,,,693359.37224, -17.98431,
,,,694580.07536, -17.98431,
,,,695800.77848, -17.98431,
,,,697021.48160, -16.78431,
,,,698242.18472, -17.98431,
,,,699462.88784, -11.58431,
,,,700683.59096, -12.78431,
,,,701904.29408, -17.98431,
,,,703124.99720, -17.98431,
,,,704345.70032, -17.98431,
,,,705566.40344, -13.98431,
,,,706787.10656, -11.58431,
,,,708007.80968, -13.98431,
,,,709228.51280, -17.98431,
,,,710449.21592, -17.98431,
,,,711669.91904, -17.98431,
,,,712890.62216, -16.78431,
,,,714111.32528, -16.78431,
,,,715332.02840, -11.58431,
,,,716552.73152, -13.98431,
,,,717773.43464, -17.98431,
,,,718994.13776, -17.98431,
,,,720214.84088, -17.98431,
,,,721435.54400, -17.98431,
,,,722656.24712, -17.98431,
,,,723876.95024, -17.98431,
,,,725097.65336, -17.98431,
,,,726318.35648, -14.78431,
,,,727539.05960, -13.98431,
,,,728759.76272, -17.98431,
,,,729980.46584, -17.98431,
,,,731201.16896, -17.98431,
,,,732421.87208, -17.98431,
,,,733642.57520, -17.98431,
,,,734863.27832, -17.98431,
,,,736083.98144, -17.98431,
,,,737304.68456, -17.98431,
,,,738525.38768, -17.98431,
,,,739746.09080, -16.78431,
,,,740966.79392, -13.98431,
,,,742187.49704, -14.38431,
,,,743408.20016, -17.98431,
,,,744628.90328, -16.78431,
,,,745849.60640, -16.78431,
,,,747070.30952, -17.98431,
,,,748291.01264, -17.98431,
,,,749511.71576, -16.78431,
,,,750732.41888, -17.98431,
,,,751953.12200, -17.98431,
,,,753173.82512, -16.78431,
,,,754394.52824, -16.78431,
,,,755615.23136, -17.98431,
,,,756835.93448, -14.78431,
,,,758056.63760, -10.78431,
,,,759277.34072, -11.98431,
,,,760498.04384, -17.98431,
,,,761718.74696, -16.78431,
,,,762939.45008, -13.98431,
,,,764160.15320, -12.78431,
,,,765380.85632, -17.98431,
,,,766601.55944, -17.98431,
,,,767822.26256, -16.78431,
,,,769042.96568, -17.98431,
,,,770263.66880, -17.98431,
,,,771484.37192, -17.98431,
,,,772705.07504, -17.98431,
,,,773925.77816, -17.98431,
,,,775146.48128, -17.98431,
,,,776367.18440, -17.98431,
,,,777587.88752, -16.78431,
,,,778808.59064, -17.98431,
,,,780029.29376, -17.98431,
,,,781249.99688, -17.98431,
,,,782470.70000, -14.38431,
,,,783691.40312, -14.78431,
,,,784912.10624, -17.98431,
,,,786132.80936, -17.98431,
,,,787353.51248, -17.98431,
,,,788574.21560, -16.78431,
,,,789794.91872, -14.78431,
,,,791015.62184, -16.78431,
,,,792236.32496, -17.98431,
,,,793457.02808, -17.98431,
,,,794677.73120, -17.98431,
,,,795898.43432, -11.98431,
,,,797119.13744,  -9.18431,
,,,798339.84056,  -9.98431,
,,,799560.54368, -12.78431,
,,,800781.24680, -16.78431,
,,,802001.94992, -12.78431,
,,,803222.65304, -12.78431,
,,,804443.35616, -17.98431,
,,,805664.05928, -17.98431,
,,,806884.76240, -13.98431,
,,,808105.46552,  -8.38431,
,,,809326.16864, -12.78431,
,,,810546.87176, -17.98431,
,,,811767.57488, -14.38431,
,,,812988.27800, -17.98431,
,,,814208.98112, -17.98431,
,,,815429.68424, -17.98431,
,,,816650.38736, -16.78431,
,,,817871.09048, -16.78431,
,,,819091.79360, -17.98431,
,,,820312.49672, -17.98431,
,,,821533.19984, -17.98431,
,,,822753.90296, -17.98431,
,,,823974.60608, -17.98431,
,,,825195.30920, -17.98431,
,,,826416.01232, -17.98431,
,,,827636.71544, -13.98431,
,,,828857.41856, -16.78431,
,,,830078.12168, -17.98431,
,,,831298.82480, -17.98431,
,,,832519.52792, -13.98431,
,,,833740.23104,  -9.98431,
,,,834960.93416, -11.58431,
,,,836181.63728, -13.98431,
,,,837402.34040, -17.98431,
,,,838623.04352, -16.78431,
,,,839843.74664, -12.78431,
,,,841064.44976, -16.78431,
,,,842285.15288, -16.78431,
,,,843505.85600, -16.78431,
,,,844726.55912, -17.98431,
,,,845947.26224, -16.78431,
,,,847167.96536, -16.78431,
,,,848388.66848, -17.98431,
,,,849609.37160, -17.98431,
,,,850830.07472, -17.98431,
,,,852050.77784, -12.78431,
,,,853271.48096, -14.38431,
,,,854492.18408, -17.98431,
