Data/ALL0029/F0029FFT.CSV

Record Length,1.024000e+03,,          0.00000,   6.01569,
Sample Interval,1.220703e+03,,       1220.70312,   1.21569,
Trigger Point,-0.000000000000e+00,,       2441.40625, -17.98431,
,,,       3662.10938,  -8.78431,
,,,       4882.81250,  -4.78431,
,,,       6103.51562,   5.21569,
Source,FFT,,       7324.21875,  14.01569,
Vertical Units,dB,,       8544.92188,  32.81569,
Vertical Scale,1.000000e+01,,       9765.62500,  44.81569,
Vertical Offset,0.000000e+00,,      10986.32812,  43.61569,
Horizontal Units,Hz,,      12207.03125,  26.81569,
Horizontal Scale,1.250000e+05,,      13427.73438,  11.61569,
Pt Fmt,Y,,      14648.43750,   3.21569,
Yzero,2.201569e+01,,      15869.14062,  -3.18431,
Probe Atten,1.000000e+00,,      17089.84375, -13.98431,
Model Number,TBS1202B-EDU,,      18310.54688, -12.78431,
Serial Number,C030451,,      19531.25000,   5.61569,
Firmware Version,FV:v4.06,,      20751.95312,   8.01569,
,,,21972.65624,  -0.38431,
,,,23193.35936, -17.98431,
,,,24414.06248, -14.78431,
,,,25634.76560, -11.58431,
,,,26855.46872, -17.98431,
,,,28076.17184,  -4.78431,
,,,29296.87496,  18.01569,
,,,30517.57808,  26.41569,
,,,31738.28120,  22.41569,
,,,32958.98432,  -4.78431,
,,,34179.68744, -13.98431,
,,,35400.39056,  -9.98431,
,,,36621.09368, -12.78431,
,,,37841.79680, -17.98431,
,,,39062.49992, -13.98431,
,,,40283.20304,  -0.78431,
,,,41503.90616,   0.01569,
,,,42724.60928, -10.78431,
,,,43945.31240, -17.98431,
,,,45166.01552, -17.98431,
,,,46386.71864, -17.98431,
,,,47607.42176, -16.78431,
,,,48828.12488, -17.98431,
,,,50048.82800,  12.01569,
,,,51269.53112,  17.21569,
,,,52490.23424,  10.81569,
,,,53710.93736, -14.78431,
,,,54931.64048, -13.98431,
,,,56152.34360, -17.98431,
,,,57373.04672, -13.98431,
,,,58593.74984, -13.98431,
,,,59814.45296, -13.98431,
,,,61035.15608,  -1.18431,
,,,62255.85920,  -1.58431,
,,,63476.56232, -11.58431,
,,,64697.26544, -17.98431,
,,,65917.96856, -17.98431,
,,,67138.67168, -17.98431,
,,,68359.37480, -16.78431,
,,,69580.07792, -16.78431,
,,,70800.78104,   8.41569,
,,,72021.48416,  11.21569,
,,,73242.18728,   1.21569,
,,,74462.89040, -17.98431,
,,,75683.59352, -17.98431,
,,,76904.29664, -17.98431,
,,,78124.99976, -17.98431,
,,,79345.70288, -17.98431,
,,,80566.40600, -11.58431,
,,,81787.10912,  -5.58431,
,,,83007.81224, -11.58431,
,,,84228.51536, -17.98431,
,,,85449.21848, -16.78431,
,,,86669.92160, -12.78431,
,,,87890.62472, -16.78431,
,,,89111.32784, -13.98431,
,,,90332.03096,  -8.78431,
,,,91552.73408,   4.41569,
,,,92773.43720,   5.21569,
,,,93994.14032,  -9.98431,
,,,95214.84344, -16.78431,
,,,96435.54656, -12.78431,
,,,97656.24968, -16.78431,
,,,98876.95280, -17.98431,
,,,100097.65592, -17.98431,
,,,101318.35904, -11.58431,
,,,102539.06216,  -5.58431,
,,,103759.76528, -11.58431,
,,,104980.46840, -16.78431,
,,,106201.17152, -13.98431,
,,,107421.87464, -13.98431,
,,,108642.57776, -17.98431,
,,,109863.28088, -16.78431,
,,,111083.98400,  -8.38431,
,,,112304.68712,   2.81569,
,,,113525.39024,  -0.78431,
,,,114746.09336, -17.98431,
,,,115966.79648, -13.98431,
,,,117187.49960, -17.98431,
,,,118408.20272, -16.78431,
,,,119628.90584, -17.98431,
,,,120849.60896, -17.98431,
,,,122070.31208,  -9.98431,
,,,123291.01520,  -9.98431,
,,,124511.71832, -17.98431,
,,,125732.42144, -16.78431,
,,,126953.12456, -11.98431,
,,,128173.82768, -17.98431,
,,,129394.53080, -16.78431,
,,,130615.23392, -17.98431,
,,,131835.93704,  -6.78431,
,,,133056.64016,  -1.18431,
,,,134277.34328,  -8.78431,
,,,135498.04640, -14.78431,
,,,136718.74952,  -9.98431,
,,,137939.45264, -16.78431,
,,,139160.15576, -12.78431,
,,,140380.85888, -11.98431,
,,,141601.56200, -13.98431,
,,,142822.26512, -13.98431,
,,,144042.96824, -10.78431,
,,,145263.67136, -12.78431,
,,,146484.37448, -14.78431,
,,,147705.07760, -17.98431,
,,,148925.78072, -17.98431,
,,,150146.48384, -17.98431,
,,,151367.18696, -16.78431,
,,,152587.89008,  -3.98431,
,,,153808.59320,  -3.18431,
,,,155029.29632, -14.78431,
,,,156249.99944, -14.78431,
,,,157470.70256, -16.78431,
,,,158691.40568, -17.98431,
,,,159912.10880, -17.98431,
,,,161132.81192, -17.98431,
,,,162353.51504, -13.98431,
,,,163574.21816, -11.58431,
,,,164794.92128,  -8.78431,
,,,166015.62440, -12.78431,
,,,167236.32752, -17.98431,
,,,168457.03064, -13.98431,
,,,169677.73376, -16.78431,
,,,170898.43688, -17.98431,
,,,172119.14000, -14.78431,
,,,173339.84312,  -7.98431,
,,,174560.54624,  -7.98431,
,,,175781.24936, -13.98431,
,,,177001.95248, -13.98431,
,,,178222.65560, -16.78431,
,,,179443.35872, -13.98431,
,,,180664.06184, -16.78431,
,,,181884.76496, -17.98431,
,,,183105.46808, -16.78431,
,,,184326.17120,  -8.78431,
,,,185546.87432, -11.58431,
,,,186767.57744, -16.78431,
,,,187988.28056, -16.78431,
,,,189208.98368, -16.78431,
,,,190429.68680, -14.38431,
,,,191650.38992, -16.78431,
,,,192871.09304, -17.98431,
,,,194091.79616,  -5.98431,
,,,195312.49928,  -5.58431,
,,,196533.20240,  -9.98431,
,,,197753.90552, -11.58431,
,,,198974.60864, -16.78431,
,,,200195.31176, -16.78431,
,,,201416.01488,  -9.98431,
,,,202636.71800, -14.78431,
,,,203857.42112, -16.78431,
,,,205078.12424, -16.78431,
,,,206298.82736, -16.78431,
,,,207519.53048, -11.58431,
,,,208740.23360, -17.98431,
,,,209960.93672, -17.98431,
,,,211181.63984, -17.98431,
,,,212402.34296, -17.98431,
,,,213623.04608, -14.78431,
,,,214843.74920,  -7.58431,
,,,216064.45232,  -8.78431,
,,,217285.15544, -12.78431,
,,,218505.85856, -17.98431,
,,,219726.56168, -17.98431,
,,,220947.26480, -17.98431,
,,,222167.96792, -16.78431,
,,,223388.67104, -13.98431,
,,,224609.37416, -10.78431,
,,,225830.07728, -17.98431,
,,,227050.78040, -16.78431,
,,,228271.48352, -17.98431,
,,,229492.18664, -17.98431,
,,,230712.88976, -11.58431,
,,,231933.59288, -11.58431,
,,,233154.29600, -17.98431,
,,,234374.99912, -16.78431,
,,,235595.70224, -11.58431,
,,,236816.40536, -14.78431,
,,,238037.10848, -16.78431,
,,,239257.81160, -17.98431,
,,,240478.51472, -14.78431,
,,,241699.21784, -16.78431,
,,,242919.92096, -16.78431,
,,,244140.62408, -17.98431,
,,,245361.32720, -17.98431,
,,,246582.03032, -17.98431,
,,,247802.73344, -17.98431,
,,,249023.43656, -17.98431,
,,,250244.13968, -17.98431,
,,,251464.84280, -17.98431,
,,,252685.54592, -17.98431,
,,,253906.24904, -17.98431,
,,,255126.95216, -14.38431,
,,,256347.65528, -13.98431,
,,,257568.35840, -17.98431,
,,,258789.06152, -17.98431,
,,,260009.76464, -17.98431,
,,,261230.46776, -17.98431,
,,,262451.17088, -14.78431,
,,,263671.87400, -16.78431,
,,,264892.57712, -17.98431,
,,,266113.28024, -14.38431,
,,,267333.98336, -17.98431,
,,,268554.68648, -17.98431,
,,,269775.38960, -17.98431,
,,,270996.09272, -16.78431,
,,,272216.79584, -12.78431,
,,,273437.49896, -16.78431,
,,,274658.20208, -16.78431,
,,,275878.90520, -12.78431,
,,,277099.60832, -12.78431,
,,,278320.31144, -14.78431,
,,,279541.01456, -17.98431,
,,,280761.71768, -17.98431,
,,,281982.42080, -16.78431,
,,,283203.12392, -17.98431,
,,,284423.82704, -14.38431,
,,,285644.53016, -13.98431,
,,,286865.23328, -14.38431,
,,,288085.93640, -13.98431,
,,,289306.63952, -16.78431,
,,,290527.34264, -16.78431,
,,,291748.04576, -17.98431,
,,,292968.74888, -17.98431,
,,,294189.45200, -17.98431,
,,,295410.15512, -17.98431,
,,,296630.85824, -17.98431,
,,,297851.56136, -16.78431,
,,,299072.26448, -17.98431,
,,,300292.96760, -17.98431,
,,,301513.67072, -17.98431,
,,,302734.37384, -13.98431,
,,,303955.07696, -12.78431,
,,,305175.78008, -14.78431,
,,,306396.48320, -14.78431,
,,,307617.18632, -16.78431,
,,,308837.88944, -17.98431,
,,,310058.59256, -17.98431,
,,,311279.29568, -17.98431,
,,,312499.99880, -16.78431,
,,,313720.70192, -14.78431,
,,,314941.40504, -17.98431,
,,,316162.10816, -13.98431,
,,,317382.81128, -11.58431,
,,,318603.51440, -16.78431,
,,,319824.21752, -14.78431,
,,,321044.92064, -16.78431,
,,,322265.62376, -17.98431,
,,,323486.32688, -17.98431,
,,,324707.03000, -16.78431,
,,,325927.73312, -10.78431,
,,,327148.43624, -11.58431,
,,,328369.13936, -16.78431,
,,,329589.84248, -11.58431,
,,,330810.54560,  -9.98431,
,,,332031.24872, -12.78431,
,,,333251.95184, -11.98431,
,,,334472.65496, -14.38431,
,,,335693.35808, -16.78431,
,,,336914.06120, -17.98431,
,,,338134.76432, -17.98431,
,,,339355.46744, -17.98431,
,,,340576.17056, -17.98431,
,,,341796.87368, -17.98431,
,,,343017.57680, -16.78431,
,,,344238.27992, -17.98431,
,,,345458.98304, -17.98431,
,,,346679.68616, -17.98431,
,,,347900.38928, -14.78431,
,,,349121.09240, -14.78431,
,,,350341.79552, -17.98431,
,,,351562.49864, -16.78431,
,,,352783.20176,  -9.98431,
,,,354003.90488, -12.78431,
,,,355224.60800, -17.98431,
,,,356445.31112, -17.98431,
,,,357666.01424, -17.98431,
,,,358886.71736, -17.98431,
,,,360107.42048, -17.98431,
,,,361328.12360, -14.78431,
,,,362548.82672, -17.98431,
,,,363769.52984, -17.98431,
,,,364990.23296, -17.98431,
,,,366210.93608, -16.78431,
,,,367431.63920, -17.98431,
,,,368652.34232, -14.78431,
,,,369873.04544, -16.78431,
,,,371093.74856, -17.98431,
,,,372314.45168, -17.98431,
,,,373535.15480, -17.98431,
,,,374755.85792, -16.78431,
,,,375976.56104, -17.98431,
,,,377197.26416, -16.78431,
,,,378417.96728, -13.98431,
,,,379638.67040, -14.78431,
,,,380859.37352, -17.98431,
,,,382080.07664, -17.98431,
,,,383300.77976, -16.78431,
,,,384521.48288, -14.78431,
,,,385742.18600, -17.98431,
,,,386962.88912, -16.78431,
,,,388183.59224, -16.78431,
,,,389404.29536, -17.98431,
,,,390624.99848, -17.98431,
,,,391845.70160, -17.98431,
,,,393066.40472, -16.78431,
,,,394287.10784, -12.78431,
,,,395507.81096, -11.58431,
,,,396728.51408, -16.78431,
,,,397949.21720, -16.78431,
,,,399169.92032, -16.78431,
,,,400390.62344, -17.98431,
,,,401611.32656, -17.98431,
,,,402832.02968, -17.98431,
,,,404052.73280, -11.58431,
,,,405273.43592, -12.78431,
,,,406494.13904, -14.38431,
,,,407714.84216, -16.78431,
,,,408935.54528, -17.98431,
,,,410156.24840, -17.98431,
,,,411376.95152, -17.98431,
,,,412597.65464, -17.98431,
,,,413818.35776, -13.98431,
,,,415039.06088, -16.78431,
,,,416259.76400, -17.98431,
,,,417480.46712, -17.98431,
,,,418701.17024, -17.98431,
,,,419921.87336, -14.38431,
,,,421142.57648, -17.98431,
,,,422363.27960, -14.78431,
,,,423583.98272, -16.78431,
,,,424804.68584, -17.98431,
,,,426025.38896, -17.98431,
,,,427246.09208, -14.78431,
,,,428466.79520, -14.78431,
,,,429687.49832, -17.98431,
,,,430908.20144, -17.98431,
,,,432128.90456, -17.98431,
,,,433349.60768, -17.98431,
,,,434570.31080, -17.98431,
,,,435791.01392, -17.98431,
,,,437011.71704, -17.98431,
,,,438232.42016, -17.98431,
,,,439453.12328, -12.78431,
,,,440673.82640, -12.78431,
,,,441894.52952, -17.98431,
,,,443115.23264, -16.78431,
,,,444335.93576, -16.78431,
,,,445556.63888, -16.78431,
,,,446777.34200, -17.98431,
,,,447998.04512, -14.78431,
,,,449218.74824, -10.78431,
,,,450439.45136, -11.58431,
,,,451660.15448, -13.98431,
,,,452880.85760, -17.98431,
,,,454101.56072, -17.98431,
,,,455322.26384, -17.98431,
,,,456542.96696, -16.78431,
,,,457763.67008, -14.78431,
,,,458984.37320, -16.78431,
,,,460205.07632, -11.58431,
,,,461425.77944, -17.98431,
,,,462646.48256, -16.78431,
,,,463867.18568, -13.98431,
,,,465087.88880, -13.98431,
,,,466308.59192, -17.98431,
,,,467529.29504, -17.98431,
,,,468749.99816, -17.98431,
,,,469970.70128, -17.98431,
,,,471191.40440, -17.98431,
,,,472412.10752, -11.98431,
,,,473632.81064, -14.78431,
,,,474853.51376, -16.78431,
,,,476074.21688, -16.78431,
,,,477294.92000, -16.78431,
,,,478515.62312, -17.98431,
,,,479736.32624, -17.98431,
,,,480957.02936, -16.78431,
,,,482177.73248, -17.98431,
,,,483398.43560, -17.98431,
,,,484619.13872, -17.98431,
,,,485839.84184, -17.98431,
,,,487060.54496, -17.98431,
,,,488281.24808, -17.98431,
,,,489501.95120, -16.78431,
,,,490722.65432, -17.98431,
,,,491943.35744, -16.78431,
,,,493164.06056, -13.98431,
,,,494384.76368, -16.78431,
,,,495605.46680, -17.98431,
,,,496826.16992, -16.78431,
,,,498046.87304, -16.78431,
,,,499267.57616, -17.98431,
,,,500488.27928, -17.98431,
,,,501708.98240, -16.78431,
,,,502929.68552, -17.98431,
,,,504150.38864, -16.78431,
,,,505371.09176, -16.78431,
,,,506591.79488, -17.98431,
,,,507812.49800, -17.98431,
,,,509033.20112, -17.98431,
,,,510253.90424, -14.38431,
,,,511474.60736, -17.98431,
,,,512695.31048, -17.98431,
,,,513916.01360, -17.98431,
,,,515136.71672, -16.78431,
,,,516357.41984, -16.78431,
,,,517578.12296, -14.78431,
,,,518798.82608, -14.78431,
,,,520019.52920, -14.38431,
,,,521240.23232, -11.58431,
,,,522460.93544, -14.38431,
,,,523681.63856, -16.78431,
,,,524902.34168, -17.98431,
,,,526123.04480, -17.98431,
,,,527343.74792, -17.98431,
,,,528564.45104, -17.98431,
,,,529785.15416, -16.78431,
,,,531005.85728, -17.98431,
,,,532226.56040, -13.98431,
,,,533447.26352, -11.98431,
,,,534667.96664, -16.78431,
,,,535888.66976, -17.98431,
,,,537109.37288, -17.98431,
,,,538330.07600, -17.98431,
,,,539550.77912, -17.98431,
,,,540771.48224, -14.78431,
,,,541992.18536, -16.78431,
,,,543212.88848, -17.98431,
,,,544433.59160, -17.98431,
,,,545654.29472, -14.38431,
,,,546874.99784, -16.78431,
,,,548095.70096, -17.98431,
,,,549316.40408, -17.98431,
,,,550537.10720, -17.98431,
,,,551757.81032, -17.98431,
,,,552978.51344, -14.78431,
,,,554199.21656, -16.78431,
,,,555419.91968, -17.98431,
,,,556640.62280, -17.98431,
,,,557861.32592, -17.98431,
,,,559082.02904, -16.78431,
,,,560302.73216, -13.98431,
,,,561523.43528, -16.78431,
,,,562744.13840, -16.78431,
,,,563964.84152, -17.98431,
,,,565185.54464, -16.78431,
,,,566406.24776, -16.78431,
,,,567626.95088, -16.78431,
,,,568847.65400, -16.78431,
,,,570068.35712, -17.98431,
,,,571289.06024, -16.78431,
,,,572509.76336, -12.78431,
,,,573730.46648, -16.78431,
,,,574951.16960, -17.98431,
,,,576171.87272, -17.98431,
,,,577392.57584, -14.78431,
,,,578613.27896, -17.98431,
,,,579833.98208, -16.78431,
,,,581054.68520, -16.78431,
,,,582275.38832, -17.98431,
,,,583496.09144, -17.98431,
,,,584716.79456, -16.78431,
,,,585937.49768, -16.78431,
,,,587158.20080, -17.98431,
,,,588378.90392, -17.98431,
,,,589599.60704, -17.98431,
,,,590820.31016, -17.98431,
,,,592041.01328, -17.98431,
,,,593261.71640, -17.98431,
,,,594482.41952, -17.98431,
,,,595703.12264, -17.98431,
,,,596923.82576, -17.98431,
,,,598144.52888, -17.98431,
,,,599365.23200, -16.78431,
,,,600585.93512, -16.78431,
,,,601806.63824, -17.98431,
,,,603027.34136, -17.98431,
,,,604248.04448, -17.98431,
,,,605468.74760, -11.58431,
,,,606689.45072, -13.98431,
,,,607910.15384, -17.98431,
,,,609130.85696, -17.98431,
,,,610351.56008, -17.98431,
,,,611572.26320, -17.98431,
,,,612792.96632, -17.98431,
,,,614013.66944, -17.98431,
,,,615234.37256, -17.98431,
,,,616455.07568, -17.98431,
,,,617675.77880, -16.78431,
,,,618896.48192, -13.98431,
,,,620117.18504, -17.98431,
,,,621337.88816, -17.98431,
,,,622558.59128, -17.98431,
,,,623779.29440, -11.58431,
,,,624999.99752, -14.78431,
,,,626220.70064, -14.78431,
,,,627441.40376, -17.98431,
,,,628662.10688, -17.98431,
,,,629882.81000, -17.98431,
,,,631103.51312, -17.98431,
,,,632324.21624, -17.98431,
,,,633544.91936, -17.98431,
,,,634765.62248, -17.98431,
,,,635986.32560, -17.98431,
,,,637207.02872, -17.98431,
,,,638427.73184, -16.78431,
,,,639648.43496, -14.78431,
,,,640869.13808, -17.98431,
,,,642089.84120, -17.98431,
,,,643310.54432, -17.98431,
,,,644531.24744, -14.78431,
,,,645751.95056, -16.78431,
,,,646972.65368, -17.98431,
,,,648193.35680, -17.98431,
,,,649414.05992, -13.98431,
,,,650634.76304, -12.78431,
,,,651855.46616, -16.78431,
,,,653076.16928, -17.98431,
,,,654296.87240, -17.98431,
,,,655517.57552, -13.98431,
,,,656738.27864, -17.98431,
,,,657958.98176, -17.98431,
,,,659179.68488, -17.98431,
,,,660400.38800, -17.98431,
,,,661621.09112, -17.98431,
,,,662841.79424, -16.78431,
,,,664062.49736, -17.98431,
,,,665283.20048, -16.78431,
,,,666503.90360, -16.78431,
,,,667724.60672, -17.98431,
,,,668945.30984, -14.78431,
,,,670166.01296, -17.98431,
,,,671386.71608, -17.98431,
,,,672607.41920, -17.98431,
,,,673828.12232, -16.78431,
,,,675048.82544, -17.98431,
,,,676269.52856, -17.98431,
,,,677490.23168, -16.78431,
,,,678710.93480, -11.98431,
,,,679931.63792, -11.98431,
,,,681152.34104, -12.78431,
,,,682373.04416, -16.78431,
,,,683593.74728, -17.98431,
,,,684814.45040, -17.98431,
,,,686035.15352, -16.78431,
,,,687255.85664, -12.78431,
,,,688476.55976, -17.98431,
,,,689697.26288, -17.98431,
,,,690917.96600, -17.98431,
,,,692138.66912, -17.98431,
,,,693359.37224, -17.98431,
,,,694580.07536, -17.98431,
,,,695800.77848, -14.38431,
,,,697021.48160, -16.78431,
,,,698242.18472, -13.98431,
,,,699462.88784, -12.78431,
,,,700683.59096, -16.78431,
,,,701904.29408, -16.78431,
,,,703124.99720, -17.98431,
,,,704345.70032, -14.78431,
,,,705566.40344, -11.58431,
,,,706787.10656, -17.98431,
,,,708007.80968, -16.78431,
,,,709228.51280, -16.78431,
,,,710449.21592, -17.98431,
,,,711669.91904, -17.98431,
,,,712890.62216, -16.78431,
,,,714111.32528, -17.98431,
,,,715332.02840, -17.98431,
,,,716552.73152, -11.58431,
,,,717773.43464, -13.98431,
,,,718994.13776, -17.98431,
,,,720214.84088, -17.98431,
,,,721435.54400, -14.78431,
,,,722656.24712, -12.78431,
,,,723876.95024, -17.98431,
,,,725097.65336, -17.98431,
,,,726318.35648, -17.98431,
,,,727539.05960, -16.78431,
,,,728759.76272, -17.98431,
,,,729980.46584, -11.98431,
,,,731201.16896, -11.58431,
,,,732421.87208, -17.98431,
,,,733642.57520, -17.98431,
,,,734863.27832, -16.78431,
,,,736083.98144, -14.78431,
,,,737304.68456, -17.98431,
,,,738525.38768, -17.98431,
,,,739746.09080, -13.98431,
,,,740966.79392, -12.78431,
,,,742187.49704, -17.98431,
,,,743408.20016, -17.98431,
,,,744628.90328, -17.98431,
,,,745849.60640, -12.78431,
,,,747070.30952, -12.78431,
,,,748291.01264, -13.98431,
,,,749511.71576, -13.98431,
,,,750732.41888, -13.98431,
,,,751953.12200, -17.98431,
,,,753173.82512, -17.98431,
,,,754394.52824, -17.98431,
,,,755615.23136, -13.98431,
,,,756835.93448, -12.78431,
,,,758056.63760, -17.98431,
,,,759277.34072, -16.78431,
,,,760498.04384, -17.98431,
,,,761718.74696, -17.98431,
,,,762939.45008, -17.98431,
,,,764160.15320, -14.78431,
,,,765380.85632, -17.98431,
,,,766601.55944, -17.98431,
,,,767822.26256, -17.98431,
,,,769042.96568, -16.78431,
,,,770263.66880, -14.38431,
,,,771484.37192, -17.98431,
,,,772705.07504, -16.78431,
,,,773925.77816, -17.98431,
,,,775146.48128, -17.98431,
,,,776367.18440, -12.78431,
,,,777587.88752, -11.58431,
,,,778808.59064, -17.98431,
,,,780029.29376, -13.98431,
,,,781249.99688, -12.78431,
,,,782470.70000,  -9.98431,
,,,783691.40312, -16.78431,
,,,784912.10624, -17.98431,
,,,786132.80936, -17.98431,
,,,787353.51248, -17.98431,
,,,788574.21560, -17.98431,
,,,789794.91872, -17.98431,
,,,791015.62184, -17.98431,
,,,792236.32496, -13.98431,
,,,793457.02808, -10.78431,
,,,794677.73120, -13.98431,
,,,795898.43432, -10.78431,
,,,797119.13744, -12.78431,
,,,798339.84056, -17.98431,
,,,799560.54368, -17.98431,
,,,800781.24680, -17.98431,
,,,802001.94992, -17.98431,
,,,803222.65304, -13.98431,
,,,804443.35616, -10.78431,
,,,805664.05928, -17.98431,
,,,806884.76240, -16.78431,
,,,808105.46552, -10.78431,
,,,809326.16864, -13.98431,
,,,810546.87176, -16.78431,
,,,811767.57488, -14.38431,
,,,812988.27800, -11.58431,
,,,814208.98112, -11.58431,
,,,815429.68424, -12.78431,
,,,816650.38736, -14.78431,
,,,817871.09048, -17.98431,
,,,819091.79360, -17.98431,
,,,820312.49672, -14.38431,
,,,821533.19984, -17.98431,
,,,822753.90296, -17.98431,
,,,823974.60608, -13.98431,
,,,825195.30920, -17.98431,
,,,826416.01232, -17.98431,
,,,827636.71544, -17.98431,
,,,828857.41856, -17.98431,
,,,830078.12168, -16.78431,
,,,831298.82480, -16.78431,
,,,832519.52792, -17.98431,
,,,833740.23104, -17.98431,
,,,834960.93416, -17.98431,
,,,836181.63728, -17.98431,
,,,837402.34040, -17.98431,
,,,838623.04352, -17.98431,
,,,839843.74664, -17.98431,
,,,841064.44976, -17.98431,
,,,842285.15288, -16.78431,
,,,843505.85600, -17.98431,
,,,844726.55912, -17.98431,
,,,845947.26224, -16.78431,
,,,847167.96536, -17.98431,
,,,848388.66848, -17.98431,
,,,849609.37160, -14.38431,
,,,850830.07472, -12.78431,
,,,852050.77784, -13.98431,
,,,853271.48096, -11.98431,
,,,854492.18408, -16.78431,
