Data/ALL0027/F0027FFT.CSV

Record Length,1.024000e+03,,          0.00000,  35.61569,
Sample Interval,1.220703e+03,,       1220.70312,  44.01569,
Trigger Point,-0.000000000000e+00,,       2441.40625,   8.81569,
,,,       3662.10938,  25.21569,
,,,       4882.81250,   3.61569,
,,,       6103.51562,  17.21569,
Source,FFT,,       7324.21875,   2.01569,
Vertical Units,dB,,       8544.92188,  12.41569,
Vertical Scale,1.000000e+01,,       9765.62500,  -1.18431,
Vertical Offset,0.000000e+00,,      10986.32812,   9.21569,
Horizontal Units,Hz,,      12207.03125,  -1.18431,
Horizontal Scale,1.250000e+05,,      13427.73438,   6.01569,
Pt Fmt,Y,,      14648.43750,  -2.38431,
Yzero,2.201569e+01,,      15869.14062,   4.01569,
Probe Atten,1.000000e+00,,      17089.84375,  -2.78431,
Model Number,TBS1202B-EDU,,      18310.54688,   2.81569,
Serial Number,C030451,,      19531.25000,  -2.78431,
Firmware Version,FV:v4.06,,      20751.95312,   1.61569,
,,,21972.65624,  -4.38431,
,,,23193.35936,  -0.38431,
,,,24414.06248,  -5.18431,
,,,25634.76560,  -1.58431,
,,,26855.46872,  -3.58431,
,,,28076.17184,  -3.18431,
,,,29296.87496,  -5.18431,
,,,30517.57808,  -3.58431,
,,,31738.28120,  -4.38431,
,,,32958.98432,  -5.98431,
,,,34179.68744,  -5.98431,
,,,35400.39056,  -7.18431,
,,,36621.09368,  -6.38431,
,,,37841.79680,  -7.98431,
,,,39062.49992,  -7.98431,
,,,40283.20304, -13.58431,
,,,41503.90616,  -3.98431,
,,,42724.60928,  -7.18431,
,,,43945.31240,  -8.38431,
,,,45166.01552,  -9.18431,
,,,46386.71864,  -6.78431,
,,,47607.42176, -11.58431,
,,,48828.12488,  -8.78431,
,,,50048.82800, -11.98431,
,,,51269.53112,  -8.38431,
,,,52490.23424,  -8.38431,
,,,53710.93736,  -6.38431,
,,,54931.64048,  -9.58431,
,,,56152.34360,  -8.38431,
,,,57373.04672,  -9.58431,
,,,58593.74984, -10.78431,
,,,59814.45296, -10.78431,
,,,61035.15608, -10.78431,
,,,62255.85920, -12.38431,
,,,63476.56232,  -9.58431,
,,,64697.26544,  -9.18431,
,,,65917.96856,  -9.18431,
,,,67138.67168,  -9.98431,
,,,68359.37480, -11.98431,
,,,69580.07792, -16.78431,
,,,70800.78104, -15.98431,
,,,72021.48416, -12.78431,
,,,73242.18728, -11.98431,
,,,74462.89040, -10.78431,
,,,75683.59352,  -8.78431,
,,,76904.29664, -11.18431,
,,,78124.99976, -11.58431,
,,,79345.70288, -12.78431,
,,,80566.40600, -13.18431,
,,,81787.10912, -11.58431,
,,,83007.81224, -15.98431,
,,,84228.51536, -10.78431,
,,,85449.21848, -17.98431,
,,,86669.92160, -11.98431,
,,,87890.62472, -14.78431,
,,,89111.32784, -11.18431,
,,,90332.03096, -13.18431,
,,,91552.73408, -13.98431,
,,,92773.43720, -17.98431,
,,,93994.14032, -14.78431,
,,,95214.84344, -17.98431,
,,,96435.54656, -10.78431,
,,,97656.24968, -15.98431,
,,,98876.95280, -17.58431,
,,,100097.65592, -13.98431,
,,,101318.35904,  -9.58431,
,,,102539.06216, -11.98431,
,,,103759.76528, -17.98431,
,,,104980.46840, -11.98431,
,,,106201.17152, -17.98431,
,,,107421.87464, -15.98431,
,,,108642.57776, -11.18431,
,,,109863.28088,  -9.98431,
,,,111083.98400, -15.98431,
,,,112304.68712, -15.98431,
,,,113525.39024, -15.18431,
,,,114746.09336, -15.98431,
,,,115966.79648, -17.98431,
,,,117187.49960, -17.98431,
,,,118408.20272, -17.58431,
,,,119628.90584, -17.98431,
,,,120849.60896, -15.98431,
,,,122070.31208, -13.98431,
,,,123291.01520, -16.78431,
,,,124511.71832, -10.78431,
,,,125732.42144, -17.98431,
,,,126953.12456, -15.18431,
,,,128173.82768,  -9.98431,
,,,129394.53080, -17.98431,
,,,130615.23392, -11.98431,
,,,131835.93704, -17.58431,
,,,133056.64016, -17.98431,
,,,134277.34328, -17.98431,
,,,135498.04640, -17.58431,
,,,136718.74952, -17.98431,
,,,137939.45264, -14.38431,
,,,139160.15576, -10.78431,
,,,140380.85888, -17.98431,
,,,141601.56200, -10.78431,
,,,142822.26512, -17.98431,
,,,144042.96824, -13.98431,
,,,145263.67136,  -9.18431,
,,,146484.37448, -17.98431,
,,,147705.07760, -17.58431,
,,,148925.78072, -17.58431,
,,,150146.48384, -13.18431,
,,,151367.18696, -14.38431,
,,,152587.89008, -15.98431,
,,,153808.59320, -12.78431,
,,,155029.29632, -17.98431,
,,,156249.99944, -17.98431,
,,,157470.70256, -15.98431,
,,,158691.40568, -17.98431,
,,,159912.10880, -15.98431,
,,,161132.81192, -17.98431,
,,,162353.51504, -17.98431,
,,,163574.21816, -17.58431,
,,,164794.92128, -17.58431,
,,,166015.62440, -13.18431,
,,,167236.32752, -17.98431,
,,,168457.03064, -17.98431,
,,,169677.73376, -15.98431,
,,,170898.43688, -15.18431,
,,,172119.14000, -17.98431,
,,,173339.84312, -13.98431,
,,,174560.54624, -17.98431,
,,,175781.24936, -14.78431,
,,,177001.95248, -14.38431,
,,,178222.65560, -17.98431,
,,,179443.35872, -17.98431,
,,,180664.06184, -17.58431,
,,,181884.76496, -17.98431,
,,,183105.46808, -17.58431,
,,,184326.17120, -13.58431,
,,,185546.87432, -17.98431,
,,,186767.57744, -17.98431,
,,,187988.28056, -17.98431,
,,,189208.98368, -17.98431,
,,,190429.68680, -17.98431,
,,,191650.38992, -11.18431,
,,,192871.09304, -17.98431,
,,,194091.79616, -17.98431,
,,,195312.49928, -17.98431,
,,,196533.20240, -17.98431,
,,,197753.90552, -17.98431,
,,,198974.60864, -10.78431,
,,,200195.31176, -17.98431,
,,,201416.01488, -16.78431,
,,,202636.71800, -13.98431,
,,,203857.42112, -17.98431,
,,,205078.12424, -12.38431,
,,,206298.82736, -13.58431,
,,,207519.53048, -11.98431,
,,,208740.23360, -17.98431,
,,,209960.93672, -15.18431,
,,,211181.63984, -15.98431,
,,,212402.34296, -11.98431,
,,,213623.04608, -13.18431,
,,,214843.74920, -17.98431,
,,,216064.45232, -17.98431,
,,,217285.15544, -17.98431,
,,,218505.85856, -14.38431,
,,,219726.56168, -17.98431,
,,,220947.26480, -17.98431,
,,,222167.96792, -15.98431,
,,,223388.67104, -15.98431,
,,,224609.37416, -17.98431,
,,,225830.07728, -16.78431,
,,,227050.78040, -16.78431,
,,,228271.48352, -17.98431,
,,,229492.18664, -15.98431,
,,,230712.88976, -15.98431,
,,,231933.59288, -17.98431,
,,,233154.29600, -17.98431,
,,,234374.99912, -17.98431,
,,,235595.70224, -16.78431,
,,,236816.40536, -17.98431,
,,,238037.10848, -17.98431,
,,,239257.81160, -17.98431,
,,,240478.51472, -17.98431,
,,,241699.21784, -17.98431,
,,,242919.92096, -17.98431,
,,,244140.62408, -15.98431,
,,,245361.32720, -16.78431,
,,,246582.03032, -17.98431,
,,,247802.73344, -17.98431,
,,,249023.43656, -14.38431,
,,,250244.13968, -13.98431,
,,,251464.84280, -17.98431,
,,,252685.54592, -17.98431,
,,,253906.24904, -17.98431,
,,,255126.95216, -17.98431,
,,,256347.65528, -13.98431,
,,,257568.35840, -17.58431,
,,,258789.06152, -11.98431,
,,,260009.76464, -17.98431,
,,,261230.46776, -17.98431,
,,,262451.17088, -17.98431,
,,,263671.87400, -17.98431,
,,,264892.57712, -17.98431,
,,,266113.28024, -12.38431,
,,,267333.98336, -17.58431,
,,,268554.68648, -17.98431,
,,,269775.38960, -17.98431,
,,,270996.09272, -17.58431,
,,,272216.79584, -17.98431,
,,,273437.49896, -15.98431,
,,,274658.20208, -17.98431,
,,,275878.90520, -17.98431,
,,,277099.60832, -17.58431,
,,,278320.31144, -11.18431,
,,,279541.01456, -17.98431,
,,,280761.71768, -17.98431,
,,,281982.42080, -17.58431,
,,,283203.12392, -14.78431,
,,,284423.82704, -14.78431,
,,,285644.53016, -17.98431,
,,,286865.23328, -17.98431,
,,,288085.93640, -14.78431,
,,,289306.63952, -15.98431,
,,,290527.34264, -17.58431,
,,,291748.04576, -17.98431,
,,,292968.74888, -15.98431,
,,,294189.45200, -15.98431,
,,,295410.15512, -17.58431,
,,,296630.85824, -17.98431,
,,,297851.56136, -17.98431,
,,,299072.26448, -17.58431,
,,,300292.96760, -17.98431,
,,,301513.67072, -17.58431,
,,,302734.37384, -17.98431,
,,,303955.07696, -17.98431,
,,,305175.78008, -17.98431,
,,,306396.48320, -17.98431,
,,,307617.18632, -16.78431,
,,,308837.88944, -17.98431,
,,,310058.59256, -17.98431,
,,,311279.29568, -15.98431,
,,,312499.99880, -17.98431,
,,,313720.70192, -17.98431,
,,,314941.40504, -17.58431,
,,,316162.10816, -17.98431,
,,,317382.81128, -17.98431,
,,,318603.51440, -17.58431,
,,,319824.21752, -17.98431,
,,,321044.92064, -16.78431,
,,,322265.62376, -17.58431,
,,,323486.32688, -17.98431,
,,,324707.03000, -15.98431,
,,,325927.73312, -17.98431,
,,,327148.43624, -17.98431,
,,,328369.13936, -13.18431,
,,,329589.84248, -17.58431,
,,,330810.54560, -16.78431,
,,,332031.24872, -15.98431,
,,,333251.95184, -17.98431,
,,,334472.65496, -15.98431,
,,,335693.35808, -15.18431,
,,,336914.06120, -17.98431,
,,,338134.76432, -15.98431,
,,,339355.46744, -17.98431,
,,,340576.17056, -17.98431,
,,,341796.87368, -17.98431,
,,,343017.57680, -17.98431,
,,,344238.27992, -17.98431,
,,,345458.98304, -11.58431,
,,,346679.68616, -17.98431,
,,,347900.38928, -15.98431,
,,,349121.09240, -17.98431,
,,,350341.79552, -17.98431,
,,,351562.49864, -17.98431,
,,,352783.20176, -17.98431,
,,,354003.90488, -17.98431,
,,,355224.60800, -17.98431,
,,,356445.31112, -17.98431,
,,,357666.01424, -15.98431,
,,,358886.71736, -17.98431,
,,,360107.42048, -14.78431,
,,,361328.12360, -17.98431,
,,,362548.82672, -17.98431,
,,,363769.52984, -17.98431,
,,,364990.23296, -17.98431,
,,,366210.93608, -15.98431,
,,,367431.63920, -17.98431,
,,,368652.34232, -15.98431,
,,,369873.04544, -17.98431,
,,,371093.74856, -17.98431,
,,,372314.45168, -15.98431,
,,,373535.15480, -17.98431,
,,,374755.85792, -13.98431,
,,,375976.56104, -13.18431,
,,,377197.26416, -17.58431,
,,,378417.96728, -12.78431,
,,,379638.67040, -17.98431,
,,,380859.37352, -14.78431,
,,,382080.07664, -14.78431,
,,,383300.77976, -15.98431,
,,,384521.48288, -17.98431,
,,,385742.18600, -17.98431,
,,,386962.88912, -17.98431,
,,,388183.59224, -17.58431,
,,,389404.29536, -17.98431,
,,,390624.99848, -17.98431,
,,,391845.70160, -17.98431,
,,,393066.40472, -17.58431,
,,,394287.10784, -17.98431,
,,,395507.81096, -12.78431,
,,,396728.51408, -14.78431,
,,,397949.21720, -17.98431,
,,,399169.92032, -17.98431,
,,,400390.62344, -14.78431,
,,,401611.32656, -17.98431,
,,,402832.02968, -17.98431,
,,,404052.73280, -11.98431,
,,,405273.43592, -17.98431,
,,,406494.13904, -17.98431,
,,,407714.84216, -14.78431,
,,,408935.54528, -16.78431,
,,,410156.24840, -17.98431,
,,,411376.95152, -17.98431,
,,,412597.65464, -17.98431,
,,,413818.35776, -14.78431,
,,,415039.06088, -17.98431,
,,,416259.76400, -17.98431,
,,,417480.46712, -14.38431,
,,,418701.17024, -17.98431,
,,,419921.87336, -17.98431,
,,,421142.57648, -17.98431,
,,,422363.27960, -17.98431,
,,,423583.98272, -17.98431,
,,,424804.68584, -17.58431,
,,,426025.38896, -15.98431,
,,,427246.09208, -17.98431,
,,,428466.79520, -13.98431,
,,,429687.49832, -15.98431,
,,,430908.20144, -17.98431,
,,,432128.90456, -17.98431,
,,,433349.60768, -17.98431,
,,,434570.31080, -17.98431,
,,,435791.01392, -17.98431,
,,,437011.71704, -17.98431,
,,,438232.42016, -14.38431,
,,,439453.12328, -16.78431,
,,,440673.82640, -17.98431,
,,,441894.52952, -17.98431,
,,,443115.23264, -17.98431,
,,,444335.93576, -16.78431,
,,,445556.63888, -17.98431,
,,,446777.34200, -17.98431,
,,,447998.04512, -17.98431,
,,,449218.74824, -17.58431,
,,,450439.45136, -17.98431,
,,,451660.15448, -16.78431,
,,,452880.85760, -17.98431,
,,,454101.56072, -10.78431,
,,,455322.26384, -17.98431,
,,,456542.96696, -17.98431,
,,,457763.67008, -17.98431,
,,,458984.37320, -15.98431,
,,,460205.07632, -15.98431,
,,,461425.77944, -17.98431,
,,,462646.48256, -17.98431,
,,,463867.18568, -17.98431,
,,,465087.88880, -17.98431,
,,,466308.59192, -17.98431,
,,,467529.29504, -17.98431,
,,,468749.99816, -17.98431,
,,,469970.70128, -17.98431,
,,,471191.40440, -15.98431,
,,,472412.10752, -17.98431,
,,,473632.81064, -14.78431,
,,,474853.51376, -17.98431,
,,,476074.21688, -17.98431,
,,,477294.92000, -16.78431,
,,,478515.62312, -17.98431,
,,,479736.32624, -12.78431,
,,,480957.02936, -17.98431,
,,,482177.73248, -17.98431,
,,,483398.43560, -17.98431,
,,,484619.13872, -17.98431,
,,,485839.84184, -17.98431,
,,,487060.54496, -17.98431,
,,,488281.24808, -17.98431,
,,,489501.95120, -17.98431,
,,,490722.65432, -17.58431,
,,,491943.35744, -17.98431,
,,,493164.06056, -17.98431,
,,,494384.76368, -16.78431,
,,,495605.46680, -17.98431,
,,,496826.16992, -17.98431,
,,,498046.87304, -17.98431,
,,,499267.57616, -17.98431,
,,,500488.27928, -17.98431,
,,,501708.98240, -17.98431,
,,,502929.68552, -17.98431,
,,,504150.38864, -17.98431,
,,,505371.09176, -15.98431,
,,,506591.79488, -17.98431,
,,,507812.49800, -17.98431,
,,,509033.20112, -17.98431,
,,,510253.90424, -15.98431,
,,,511474.60736, -17.98431,
,,,512695.31048, -17.98431,
,,,513916.01360, -17.98431,
,,,515136.71672, -15.18431,
,,,516357.41984, -17.98431,
,,,517578.12296, -17.98431,
,,,518798.82608, -17.98431,
,,,520019.52920, -15.18431,
,,,521240.23232, -17.98431,
,,,522460.93544, -17.98431,
,,,523681.63856, -17.98431,
,,,524902.34168, -17.98431,
,,,526123.04480, -14.78431,
,,,527343.74792, -17.98431,
,,,528564.45104, -17.98431,
,,,529785.15416, -15.98431,
,,,531005.85728, -13.58431,
,,,532226.56040, -17.98431,
,,,533447.26352, -14.78431,
,,,534667.96664, -16.78431,
,,,535888.66976, -17.98431,
,,,537109.37288, -14.78431,
,,,538330.07600, -17.98431,
,,,539550.77912, -17.98431,
,,,540771.48224, -17.98431,
,,,541992.18536, -17.98431,
,,,543212.88848, -17.98431,
,,,544433.59160, -15.98431,
,,,545654.29472, -14.78431,
,,,546874.99784, -17.98431,
,,,548095.70096, -10.78431,
,,,549316.40408, -17.98431,
,,,550537.10720, -17.98431,
,,,551757.81032, -15.98431,
,,,552978.51344, -17.58431,
,,,554199.21656, -15.18431,
,,,555419.91968, -15.18431,
,,,556640.62280, -13.98431,
,,,557861.32592, -16.78431,
,,,559082.02904, -17.98431,
,,,560302.73216, -14.78431,
,,,561523.43528, -15.98431,
,,,562744.13840, -17.98431,
,,,563964.84152, -17.98431,
,,,565185.54464, -17.98431,
,,,566406.24776, -17.58431,
,,,567626.95088, -15.98431,
,,,568847.65400, -17.98431,
,,,570068.35712, -14.78431,
,,,571289.06024, -17.58431,
,,,572509.76336, -17.98431,
,,,573730.46648, -13.98431,
,,,574951.16960, -17.98431,
,,,576171.87272, -17.98431,
,,,577392.57584, -17.98431,
,,,578613.27896, -17.98431,
,,,579833.98208, -17.58431,
,,,581054.68520, -11.98431,
,,,582275.38832, -17.98431,
,,,583496.09144, -17.98431,
,,,584716.79456, -17.98431,
,,,585937.49768, -17.98431,
,,,587158.20080, -17.58431,
,,,588378.90392, -17.98431,
,,,589599.60704, -15.98431,
,,,590820.31016, -17.98431,
,,,592041.01328, -17.98431,
,,,593261.71640, -17.98431,
,,,594482.41952, -17.98431,
,,,595703.12264, -17.98431,
,,,596923.82576, -16.78431,
,,,598144.52888, -17.58431,
,,,599365.23200, -17.98431,
,,,600585.93512, -17.98431,
,,,601806.63824, -17.98431,
,,,603027.34136, -17.98431,
,,,604248.04448, -17.98431,
,,,605468.74760, -17.98431,
,,,606689.45072, -15.98431,
,,,607910.15384, -11.58431,
,,,609130.85696, -17.98431,
,,,610351.56008, -17.98431,
,,,611572.26320, -17.98431,
,,,612792.96632, -17.98431,
,,,614013.66944, -17.58431,
,,,615234.37256, -17.98431,
,,,616455.07568, -17.98431,
,,,617675.77880, -15.98431,
,,,618896.48192, -17.98431,
,,,620117.18504, -17.98431,
,,,621337.88816, -17.98431,
,,,622558.59128, -13.98431,
,,,623779.29440, -17.98431,
,,,624999.99752, -17.98431,
,,,626220.70064, -17.98431,
,,,627441.40376, -16.78431,
,,,628662.10688, -17.98431,
,,,629882.81000, -15.18431,
,,,631103.51312, -17.98431,
,,,632324.21624, -17.98431,
,,,633544.91936, -17.98431,
,,,634765.62248, -17.98431,
,,,635986.32560, -13.98431,
,,,637207.02872, -17.98431,
,,,638427.73184, -17.98431,
,,,639648.43496, -17.98431,
,,,640869.13808, -17.58431,
,,,642089.84120, -17.98431,
,,,643310.54432, -15.98431,
,,,644531.24744, -16.78431,
,,,645751.95056, -16.78431,
,,,646972.65368, -17.98431,
,,,648193.35680, -17.98431,
,,,649414.05992, -17.98431,
,,,650634.76304, -13.98431,
,,,651855.46616, -17.98431,
,,,653076.16928, -17.98431,
,,,654296.87240, -13.18431,
,,,655517.57552, -17.98431,
,,,656738.27864, -16.78431,
,,,657958.98176, -15.98431,
,,,659179.68488, -17.98431,
,,,660400.38800, -17.98431,
,,,661621.09112, -17.98431,
,,,662841.79424, -17.58431,
,,,664062.49736, -17.98431,
,,,665283.20048, -15.98431,
,,,666503.90360, -17.98431,
,,,667724.60672, -15.18431,
,,,668945.30984, -17.98431,
,,,670166.01296, -17.98431,
,,,671386.71608, -17.98431,
,,,672607.41920, -17.98431,
,,,673828.12232, -15.18431,
,,,675048.82544, -14.78431,
,,,676269.52856, -17.58431,
,,,677490.23168, -15.18431,
,,,678710.93480, -14.38431,
,,,679931.63792, -17.98431,
,,,681152.34104, -17.98431,
,,,682373.04416, -17.98431,
,,,683593.74728, -17.98431,
,,,684814.45040, -17.98431,
,,,686035.15352, -17.58431,
,,,687255.85664, -17.98431,
,,,688476.55976, -17.58431,
,,,689697.26288, -15.18431,
,,,690917.96600, -17.98431,
,,,692138.66912, -15.98431,
,,,693359.37224, -17.98431,
,,,694580.07536, -13.98431,
,,,695800.77848, -16.78431,
,,,697021.48160, -17.98431,
,,,698242.18472, -17.98431,
,,,699462.88784, -17.98431,
,,,700683.59096, -17.98431,
,,,701904.29408, -17.98431,
,,,703124.99720, -17.98431,
,,,704345.70032, -17.98431,
,,,705566.40344, -17.98431,
,,,706787.10656, -17.98431,
,,,708007.80968, -17.58431,
,,,709228.51280, -17.98431,
,,,710449.21592, -17.98431,
,,,711669.91904, -17.98431,
,,,712890.62216, -17.98431,
,,,714111.32528, -17.98431,
,,,715332.02840, -17.98431,
,,,716552.73152, -17.58431,
,,,717773.43464, -15.98431,
,,,718994.13776, -17.98431,
,,,720214.84088, -17.98431,
,,,721435.54400, -17.98431,
,,,722656.24712, -17.98431,
,,,723876.95024, -17.98431,
,,,725097.65336, -15.98431,
,,,726318.35648, -17.98431,
,,,727539.05960, -17.98431,
,,,728759.76272, -17.98431,
,,,729980.46584, -17.98431,
,,,731201.16896, -17.98431,
,,,732421.87208, -15.98431,
,,,733642.57520, -17.98431,
,,,734863.27832, -15.98431,
,,,736083.98144, -17.58431,
,,,737304.68456, -17.98431,
,,,738525.38768, -17.98431,
,,,739746.09080, -17.98431,
,,,740966.79392, -17.98431,
,,,742187.49704, -17.98431,
,,,743408.20016, -17.58431,
,,,744628.90328, -17.98431,
,,,745849.60640, -15.98431,
,,,747070.30952, -17.98431,
,,,748291.01264, -15.98431,
,,,749511.71576, -17.98431,
,,,750732.41888, -15.18431,
,,,751953.12200, -17.98431,
,,,753173.82512, -12.78431,
,,,754394.52824, -17.98431,
,,,755615.23136, -16.78431,
,,,756835.93448, -13.58431,
,,,758056.63760, -14.38431,
,,,759277.34072, -14.38431,
,,,760498.04384, -17.98431,
,,,761718.74696, -17.98431,
,,,762939.45008, -16.78431,
,,,764160.15320, -11.98431,
,,,765380.85632, -16.78431,
,,,766601.55944, -15.98431,
,,,767822.26256, -14.38431,
,,,769042.96568, -17.98431,
,,,770263.66880, -17.98431,
,,,771484.37192, -17.98431,
,,,772705.07504, -17.98431,
,,,773925.77816, -15.98431,
,,,775146.48128, -17.98431,
,,,776367.18440, -17.98431,
,,,777587.88752, -15.18431,
,,,778808.59064, -15.18431,
,,,780029.29376, -12.78431,
,,,781249.99688, -17.98431,
,,,782470.70000, -17.98431,
,,,783691.40312, -17.98431,
,,,784912.10624, -14.38431,
,,,786132.80936, -17.98431,
,,,787353.51248, -17.98431,
,,,788574.21560, -15.98431,
,,,789794.91872, -15.98431,
,,,791015.62184, -17.98431,
,,,792236.32496, -17.58431,
,,,793457.02808, -17.98431,
,,,794677.73120, -15.98431,
,,,795898.43432, -17.98431,
,,,797119.13744, -17.98431,
,,,798339.84056, -17.98431,
,,,799560.54368, -15.98431,
,,,800781.24680, -17.98431,
,,,802001.94992, -17.98431,
,,,803222.65304, -17.98431,
,,,804443.35616, -14.38431,
,,,805664.05928, -17.98431,
,,,806884.76240, -17.98431,
,,,808105.46552, -12.38431,
,,,809326.16864, -17.98431,
,,,810546.87176, -15.98431,
,,,811767.57488, -17.58431,
,,,812988.27800, -17.58431,
,,,814208.98112, -17.98431,
,,,815429.68424, -17.98431,
,,,816650.38736, -17.98431,
,,,817871.09048, -16.78431,
,,,819091.79360, -15.18431,
,,,820312.49672, -17.98431,
,,,821533.19984, -17.98431,
,,,822753.90296, -17.58431,
,,,823974.60608, -17.98431,
,,,825195.30920, -15.98431,
,,,826416.01232, -15.98431,
,,,827636.71544, -17.98431,
,,,828857.41856, -17.98431,
,,,830078.12168, -17.98431,
,,,831298.82480, -17.98431,
,,,832519.52792, -11.18431,
,,,833740.23104, -13.98431,
,,,834960.93416, -17.98431,
,,,836181.63728, -17.98431,
,,,837402.34040, -14.78431,
,,,838623.04352, -17.58431,
,,,839843.74664, -17.98431,
,,,841064.44976, -17.98431,
,,,842285.15288, -17.98431,
,,,843505.85600, -17.98431,
,,,844726.55912, -17.98431,
,,,845947.26224, -14.78431,
,,,847167.96536, -17.58431,
,,,848388.66848, -17.98431,
,,,849609.37160, -17.98431,
,,,850830.07472, -17.98431,
,,,852050.77784, -17.98431,
,,,853271.48096, -17.98431,
,,,854492.18408, -16.78431,
