Data/ALL0042/F0042FFT.CSV

Record Length,1.024000e+03,,          0.00000,  22.41569,
Sample Interval,1.220703e+03,,       1220.70312,  -7.58431,
Trigger Point,-0.000000000000e+00,,       2441.40625,  -4.78431,
,,,       3662.10938, -17.98431,
,,,       4882.81250, -17.58431,
,,,       6103.51562, -15.98431,
Source,FFT,,       7324.21875, -13.18431,
Vertical Units,dB,,       8544.92188, -17.98431,
Vertical Scale,1.000000e+01,,       9765.62500, -15.98431,
Vertical Offset,0.000000e+00,,      10986.32812, -16.78431,
Horizontal Units,Hz,,      12207.03125, -15.98431,
Horizontal Scale,1.250000e+05,,      13427.73438, -17.98431,
Pt Fmt,Y,,      14648.43750, -17.98431,
Yzero,2.201569e+01,,      15869.14062, -17.98431,
Probe Atten,1.000000e+00,,      17089.84375, -13.98431,
Model Number,TBS1202B-EDU,,      18310.54688, -17.98431,
Serial Number,C030451,,      19531.25000, -13.98431,
Firmware Version,FV:v4.06,,      20751.95312, -17.98431,
,,,21972.65624, -17.98431,
,,,23193.35936, -10.78431,
,,,24414.06248,  -8.38431,
,,,25634.76560, -17.98431,
,,,26855.46872, -17.98431,
,,,28076.17184,  -9.18431,
,,,29296.87496,  -9.18431,
,,,30517.57808,  -9.58431,
,,,31738.28120, -15.18431,
,,,32958.98432, -11.18431,
,,,34179.68744, -13.18431,
,,,35400.39056, -10.78431,
,,,36621.09368, -13.98431,
,,,37841.79680, -15.98431,
,,,39062.49992,  -8.38431,
,,,40283.20304,  -9.18431,
,,,41503.90616, -11.18431,
,,,42724.60928,  -9.18431,
,,,43945.31240,  -8.78431,
,,,45166.01552,  -8.38431,
,,,46386.71864, -11.98431,
,,,47607.42176,  -9.58431,
,,,48828.12488,  -7.58431,
,,,50048.82800, -10.78431,
,,,51269.53112,  -6.38431,
,,,52490.23424,  -9.18431,
,,,53710.93736,  -9.18431,
,,,54931.64048,  -5.18431,
,,,56152.34360,  -6.78431,
,,,57373.04672,  -6.38431,
,,,58593.74984,  -6.38431,
,,,59814.45296,  -7.18431,
,,,61035.15608,  -4.78431,
,,,62255.85920,  -3.98431,
,,,63476.56232,  -4.38431,
,,,64697.26544,  -3.18431,
,,,65917.96856,  -2.38431,
,,,67138.67168,  -1.98431,
,,,68359.37480,  -1.98431,
,,,69580.07792,  -4.38431,
,,,70800.78104,  -1.98431,
,,,72021.48416,  -0.38431,
,,,73242.18728,  -0.38431,
,,,74462.89040,   0.01569,
,,,75683.59352,  -0.78431,
,,,76904.29664,   0.81569,
,,,78124.99976,   1.61569,
,,,79345.70288,   1.61569,
,,,80566.40600,   3.61569,
,,,81787.10912,   4.01569,
,,,83007.81224,   3.21569,
,,,84228.51536,   4.81569,
,,,85449.21848,   6.01569,
,,,86669.92160,   6.81569,
,,,87890.62472,   7.61569,
,,,89111.32784,   8.81569,
,,,90332.03096,   9.61569,
,,,91552.73408,  10.81569,
,,,92773.43720,  12.81569,
,,,93994.14032,  14.81569,
,,,95214.84344,  17.21569,
,,,96435.54656,  20.81569,
,,,97656.24968,  26.41569,
,,,98876.95280,  48.01569,
,,,100097.65592,  28.01569,
,,,101318.35904,  21.61569,
,,,102539.06216,  18.01569,
,,,103759.76528,  15.61569,
,,,104980.46840,  13.61569,
,,,106201.17152,  12.01569,
,,,107421.87464,  10.81569,
,,,108642.57776,  10.01569,
,,,109863.28088,   8.81569,
,,,111083.98400,   8.01569,
,,,112304.68712,   6.81569,
,,,113525.39024,   6.81569,
,,,114746.09336,   6.01569,
,,,115966.79648,   4.81569,
,,,117187.49960,   4.01569,
,,,118408.20272,   3.21569,
,,,119628.90584,   3.21569,
,,,120849.60896,   2.81569,
,,,122070.31208,   3.61569,
,,,123291.01520,   2.01569,
,,,124511.71832,   2.01569,
,,,125732.42144,   2.01569,
,,,126953.12456,   0.81569,
,,,128173.82768,   1.21569,
,,,129394.53080,   0.01569,
,,,130615.23392,   0.81569,
,,,131835.93704,   0.81569,
,,,133056.64016,  -1.18431,
,,,134277.34328,   0.01569,
,,,135498.04640,  -0.38431,
,,,136718.74952,  -0.38431,
,,,137939.45264,  -1.18431,
,,,139160.15576,  -2.38431,
,,,140380.85888,  -3.98431,
,,,141601.56200,  -2.38431,
,,,142822.26512,  -3.18431,
,,,144042.96824,  -3.18431,
,,,145263.67136,  -3.58431,
,,,146484.37448,  -3.98431,
,,,147705.07760,  -2.38431,
,,,148925.78072,  -3.18431,
,,,150146.48384,  -3.18431,
,,,151367.18696,  -1.18431,
,,,152587.89008,  -4.38431,
,,,153808.59320,  -3.98431,
,,,155029.29632,  -5.18431,
,,,156249.99944,  -2.38431,
,,,157470.70256,  -3.58431,
,,,158691.40568,  -2.78431,
,,,159912.10880,  -5.18431,
,,,161132.81192,  -4.78431,
,,,162353.51504,  -5.18431,
,,,163574.21816,  -3.98431,
,,,164794.92128,  -5.98431,
,,,166015.62440,  -7.18431,
,,,167236.32752,  -3.58431,
,,,168457.03064,  -8.38431,
,,,169677.73376,  -5.18431,
,,,170898.43688,  -5.18431,
,,,172119.14000,  -6.38431,
,,,173339.84312,  -5.58431,
,,,174560.54624,  -6.38431,
,,,175781.24936,  -8.38431,
,,,177001.95248,  -4.78431,
,,,178222.65560,  -4.38431,
,,,179443.35872,  -6.38431,
,,,180664.06184,  -6.38431,
,,,181884.76496,  -5.98431,
,,,183105.46808,  -6.78431,
,,,184326.17120,  -9.58431,
,,,185546.87432,  -7.18431,
,,,186767.57744,  -6.78431,
,,,187988.28056,  -6.78431,
,,,189208.98368,  -7.58431,
,,,190429.68680,  -8.38431,
,,,191650.38992,  -5.58431,
,,,192871.09304,  -8.38431,
,,,194091.79616,  -5.98431,
,,,195312.49928,  -7.58431,
,,,196533.20240,  -3.98431,
,,,197753.90552,   6.41569,
,,,198974.60864, -17.98431,
,,,200195.31176, -17.58431,
,,,201416.01488, -10.78431,
,,,202636.71800,  -8.38431,
,,,203857.42112,  -8.38431,
,,,205078.12424, -12.78431,
,,,206298.82736, -12.78431,
,,,207519.53048,  -9.18431,
,,,208740.23360,  -8.78431,
,,,209960.93672,  -6.78431,
,,,211181.63984, -10.78431,
,,,212402.34296,  -9.18431,
,,,213623.04608, -15.18431,
,,,214843.74920, -10.78431,
,,,216064.45232, -11.58431,
,,,217285.15544,  -9.18431,
,,,218505.85856, -15.98431,
,,,219726.56168,  -7.98431,
,,,220947.26480, -11.98431,
,,,222167.96792,  -9.98431,
,,,223388.67104,  -7.58431,
,,,224609.37416, -13.98431,
,,,225830.07728,  -9.58431,
,,,227050.78040,  -8.38431,
,,,228271.48352, -11.58431,
,,,229492.18664,  -9.98431,
,,,230712.88976, -11.98431,
,,,231933.59288, -11.98431,
,,,233154.29600, -15.98431,
,,,234374.99912, -11.18431,
,,,235595.70224, -11.98431,
,,,236816.40536,  -9.58431,
,,,238037.10848, -13.18431,
,,,239257.81160,  -9.58431,
,,,240478.51472,  -9.58431,
,,,241699.21784, -10.78431,
,,,242919.92096, -15.98431,
,,,244140.62408, -10.78431,
,,,245361.32720, -10.38431,
,,,246582.03032, -17.98431,
,,,247802.73344, -11.98431,
,,,249023.43656, -10.38431,
,,,250244.13968, -15.98431,
,,,251464.84280, -12.78431,
,,,252685.54592, -10.78431,
,,,253906.24904, -12.78431,
,,,255126.95216,  -9.98431,
,,,256347.65528, -12.78431,
,,,257568.35840, -17.98431,
,,,258789.06152, -17.98431,
,,,260009.76464, -16.78431,
,,,261230.46776, -15.18431,
,,,262451.17088,  -8.38431,
,,,263671.87400, -15.98431,
,,,264892.57712, -17.58431,
,,,266113.28024, -16.78431,
,,,267333.98336, -15.98431,
,,,268554.68648, -17.98431,
,,,269775.38960, -11.98431,
,,,270996.09272, -13.98431,
,,,272216.79584, -10.78431,
,,,273437.49896, -16.78431,
,,,274658.20208, -15.18431,
,,,275878.90520, -11.98431,
,,,277099.60832, -16.78431,
,,,278320.31144, -17.98431,
,,,279541.01456, -12.38431,
,,,280761.71768,  -8.78431,
,,,281982.42080, -15.98431,
,,,283203.12392, -14.38431,
,,,284423.82704, -17.98431,
,,,285644.53016, -15.98431,
,,,286865.23328, -16.78431,
,,,288085.93640, -17.98431,
,,,289306.63952, -17.98431,
,,,290527.34264, -12.78431,
,,,291748.04576, -17.98431,
,,,292968.74888,  -9.98431,
,,,294189.45200, -14.38431,
,,,295410.15512,  -3.58431,
,,,296630.85824,  11.61569,
,,,297851.56136,   4.41569,
,,,299072.26448,  -1.98431,
,,,300292.96760,  -2.78431,
,,,301513.67072,  -5.18431,
,,,302734.37384,  -4.78431,
,,,303955.07696,  -5.98431,
,,,305175.78008, -13.18431,
,,,306396.48320,  -9.58431,
,,,307617.18632,  -9.98431,
,,,308837.88944, -14.38431,
,,,310058.59256,  -9.98431,
,,,311279.29568, -13.18431,
,,,312499.99880,  -5.18431,
,,,313720.70192,  -6.78431,
,,,314941.40504, -13.18431,
,,,316162.10816,  -9.58431,
,,,317382.81128, -12.78431,
,,,318603.51440,  -9.98431,
,,,319824.21752, -11.98431,
,,,321044.92064, -11.98431,
,,,322265.62376, -16.78431,
,,,323486.32688, -11.58431,
,,,324707.03000, -11.18431,
,,,325927.73312, -15.18431,
,,,327148.43624, -10.38431,
,,,328369.13936, -11.98431,
,,,329589.84248, -10.38431,
,,,330810.54560,  -9.18431,
,,,332031.24872, -17.98431,
,,,333251.95184,  -9.18431,
,,,334472.65496, -13.58431,
,,,335693.35808, -13.98431,
,,,336914.06120,  -9.98431,
,,,338134.76432, -12.38431,
,,,339355.46744, -13.98431,
,,,340576.17056, -12.78431,
,,,341796.87368, -15.18431,
,,,343017.57680, -14.78431,
,,,344238.27992, -11.58431,
,,,345458.98304, -17.58431,
,,,346679.68616, -15.18431,
,,,347900.38928, -11.98431,
,,,349121.09240,  -7.58431,
,,,350341.79552, -12.78431,
,,,351562.49864, -10.38431,
,,,352783.20176, -10.38431,
,,,354003.90488, -17.98431,
,,,355224.60800, -13.58431,
,,,356445.31112, -15.98431,
,,,357666.01424, -12.38431,
,,,358886.71736, -10.78431,
,,,360107.42048, -13.98431,
,,,361328.12360, -10.38431,
,,,362548.82672,  -8.38431,
,,,363769.52984, -14.78431,
,,,364990.23296, -12.38431,
,,,366210.93608, -15.18431,
,,,367431.63920, -12.78431,
,,,368652.34232, -17.98431,
,,,369873.04544, -17.98431,
,,,371093.74856, -17.58431,
,,,372314.45168, -11.98431,
,,,373535.15480,  -9.58431,
,,,374755.85792, -17.98431,
,,,375976.56104, -12.38431,
,,,377197.26416, -12.38431,
,,,378417.96728, -17.98431,
,,,379638.67040, -13.98431,
,,,380859.37352, -14.38431,
,,,382080.07664, -15.98431,
,,,383300.77976, -17.98431,
,,,384521.48288, -13.98431,
,,,385742.18600, -10.78431,
,,,386962.88912, -13.98431,
,,,388183.59224, -14.38431,
,,,389404.29536, -14.38431,
,,,390624.99848, -10.78431,
,,,391845.70160, -15.98431,
,,,393066.40472, -17.98431,
,,,394287.10784, -14.78431,
,,,395507.81096,  -8.38431,
,,,396728.51408, -14.38431,
,,,397949.21720, -14.78431,
,,,399169.92032, -13.98431,
,,,400390.62344, -15.98431,
,,,401611.32656, -15.98431,
,,,402832.02968, -12.78431,
,,,404052.73280,  -5.18431,
,,,405273.43592, -17.98431,
,,,406494.13904, -13.18431,
,,,407714.84216, -17.98431,
,,,408935.54528, -10.78431,
,,,410156.24840, -17.98431,
,,,411376.95152, -17.98431,
,,,412597.65464, -13.18431,
,,,413818.35776, -12.38431,
,,,415039.06088, -10.38431,
,,,416259.76400, -17.98431,
,,,417480.46712, -13.98431,
,,,418701.17024, -17.98431,
,,,419921.87336, -13.58431,
,,,421142.57648,  -6.78431,
,,,422363.27960, -13.58431,
,,,423583.98272, -17.58431,
,,,424804.68584, -13.18431,
,,,426025.38896,  -9.98431,
,,,427246.09208, -11.58431,
,,,428466.79520, -13.58431,
,,,429687.49832,  -9.18431,
,,,430908.20144, -17.98431,
,,,432128.90456, -10.78431,
,,,433349.60768, -15.98431,
,,,434570.31080, -17.58431,
,,,435791.01392, -17.98431,
,,,437011.71704, -17.98431,
,,,438232.42016, -11.18431,
,,,439453.12328, -17.98431,
,,,440673.82640, -17.98431,
,,,441894.52952, -14.38431,
,,,443115.23264, -14.78431,
,,,444335.93576, -15.18431,
,,,445556.63888, -17.58431,
,,,446777.34200, -17.98431,
,,,447998.04512,  -9.98431,
,,,449218.74824, -17.98431,
,,,450439.45136, -15.18431,
,,,451660.15448, -16.78431,
,,,452880.85760, -15.98431,
,,,454101.56072, -17.98431,
,,,455322.26384,  -9.98431,
,,,456542.96696, -14.78431,
,,,457763.67008, -14.78431,
,,,458984.37320, -10.78431,
,,,460205.07632, -17.98431,
,,,461425.77944, -16.78431,
,,,462646.48256, -15.18431,
,,,463867.18568, -11.98431,
,,,465087.88880, -12.38431,
,,,466308.59192, -16.78431,
,,,467529.29504, -15.18431,
,,,468749.99816, -15.18431,
,,,469970.70128, -15.98431,
,,,471191.40440,  -9.58431,
,,,472412.10752, -14.78431,
,,,473632.81064, -13.58431,
,,,474853.51376, -13.98431,
,,,476074.21688, -12.38431,
,,,477294.92000, -17.98431,
,,,478515.62312, -17.98431,
,,,479736.32624, -17.98431,
,,,480957.02936, -13.98431,
,,,482177.73248, -15.98431,
,,,483398.43560, -15.18431,
,,,484619.13872, -15.18431,
,,,485839.84184, -12.38431,
,,,487060.54496, -11.98431,
,,,488281.24808, -12.78431,
,,,489501.95120, -11.98431,
,,,490722.65432, -11.58431,
,,,491943.35744, -12.38431,
,,,493164.06056,  -5.98431,
,,,494384.76368,  -2.78431,
,,,495605.46680,  -7.98431,
,,,496826.16992, -17.98431,
,,,498046.87304, -17.98431,
,,,499267.57616, -17.98431,
,,,500488.27928, -17.98431,
,,,501708.98240, -17.98431,
,,,502929.68552, -14.78431,
,,,504150.38864, -12.78431,
,,,505371.09176, -16.78431,
,,,506591.79488, -17.98431,
,,,507812.49800, -17.58431,
,,,509033.20112, -16.78431,
,,,510253.90424, -17.98431,
,,,511474.60736, -13.58431,
,,,512695.31048, -16.78431,
,,,513916.01360, -17.58431,
,,,515136.71672, -15.98431,
,,,516357.41984, -14.78431,
,,,517578.12296, -17.58431,
,,,518798.82608, -11.18431,
,,,520019.52920, -11.98431,
,,,521240.23232, -17.98431,
,,,522460.93544, -13.18431,
,,,523681.63856, -11.18431,
,,,524902.34168, -13.58431,
,,,526123.04480, -16.78431,
,,,527343.74792, -17.58431,
,,,528564.45104, -17.98431,
,,,529785.15416, -17.98431,
,,,531005.85728, -11.98431,
,,,532226.56040, -17.98431,
,,,533447.26352, -15.98431,
,,,534667.96664, -12.78431,
,,,535888.66976, -17.58431,
,,,537109.37288, -17.98431,
,,,538330.07600, -17.98431,
,,,539550.77912, -15.98431,
,,,540771.48224, -15.18431,
,,,541992.18536, -17.98431,
,,,543212.88848, -11.98431,
,,,544433.59160, -17.98431,
,,,545654.29472, -17.98431,
,,,546874.99784, -13.58431,
,,,548095.70096, -17.98431,
,,,549316.40408, -11.98431,
,,,550537.10720, -17.98431,
,,,551757.81032, -17.98431,
,,,552978.51344, -11.18431,
,,,554199.21656, -17.98431,
,,,555419.91968, -17.98431,
,,,556640.62280, -11.98431,
,,,557861.32592, -17.98431,
,,,559082.02904, -17.98431,
,,,560302.73216, -17.98431,
,,,561523.43528, -17.98431,
,,,562744.13840, -17.98431,
,,,563964.84152, -13.98431,
,,,565185.54464, -17.98431,
,,,566406.24776, -17.98431,
,,,567626.95088, -15.98431,
,,,568847.65400, -17.98431,
,,,570068.35712, -17.98431,
,,,571289.06024, -11.98431,
,,,572509.76336, -17.98431,
,,,573730.46648, -17.98431,
,,,574951.16960, -12.38431,
,,,576171.87272, -17.98431,
,,,577392.57584, -16.78431,
,,,578613.27896, -15.98431,
,,,579833.98208, -17.98431,
,,,581054.68520, -17.98431,
,,,582275.38832, -10.78431,
,,,583496.09144, -11.98431,
,,,584716.79456, -12.78431,
,,,585937.49768, -12.38431,
,,,587158.20080, -17.98431,
,,,588378.90392, -15.98431,
,,,589599.60704, -17.98431,
,,,590820.31016, -17.98431,
,,,592041.01328, -13.58431,
,,,593261.71640, -13.98431,
,,,594482.41952, -13.98431,
,,,595703.12264, -17.98431,
,,,596923.82576, -13.98431,
,,,598144.52888, -17.98431,
,,,599365.23200, -16.78431,
,,,600585.93512, -12.38431,
,,,601806.63824, -10.38431,
,,,603027.34136, -13.98431,
,,,604248.04448, -15.98431,
,,,605468.74760, -11.98431,
,,,606689.45072, -17.98431,
,,,607910.15384, -12.78431,
,,,609130.85696, -13.98431,
,,,610351.56008, -14.78431,
,,,611572.26320, -17.98431,
,,,612792.96632, -17.98431,
,,,614013.66944, -17.98431,
,,,615234.37256, -17.58431,
,,,616455.07568, -15.98431,
,,,617675.77880, -13.18431,
,,,618896.48192, -17.98431,
,,,620117.18504, -14.78431,
,,,621337.88816, -13.18431,
,,,622558.59128, -14.78431,
,,,623779.29440, -17.98431,
,,,624999.99752, -16.78431,
,,,626220.70064, -15.98431,
,,,627441.40376, -17.58431,
,,,628662.10688, -14.78431,
,,,629882.81000, -17.98431,
,,,631103.51312, -16.78431,
,,,632324.21624,  -9.18431,
,,,633544.91936, -14.38431,
,,,634765.62248, -14.38431,
,,,635986.32560, -17.98431,
,,,637207.02872, -14.78431,
,,,638427.73184, -17.98431,
,,,639648.43496, -17.98431,
,,,640869.13808, -14.38431,
,,,642089.84120, -17.98431,
,,,643310.54432, -17.98431,
,,,644531.24744, -10.38431,
,,,645751.95056, -17.98431,
,,,646972.65368, -16.78431,
,,,648193.35680, -16.78431,
,,,649414.05992, -15.98431,
,,,650634.76304, -17.98431,
,,,651855.46616, -17.98431,
,,,653076.16928, -17.58431,
,,,654296.87240, -17.98431,
,,,655517.57552, -17.98431,
,,,656738.27864, -17.98431,
,,,657958.98176, -16.78431,
,,,659179.68488, -14.78431,
,,,660400.38800, -17.98431,
,,,661621.09112, -17.58431,
,,,662841.79424, -13.98431,
,,,664062.49736, -17.98431,
,,,665283.20048, -17.98431,
,,,666503.90360, -11.98431,
,,,667724.60672, -17.98431,
,,,668945.30984, -17.98431,
,,,670166.01296, -17.98431,
,,,671386.71608, -16.78431,
,,,672607.41920, -13.98431,
,,,673828.12232, -17.98431,
,,,675048.82544, -17.98431,
,,,676269.52856, -16.78431,
,,,677490.23168, -16.78431,
,,,678710.93480, -17.98431,
,,,679931.63792, -12.38431,
,,,681152.34104, -17.98431,
,,,682373.04416, -13.18431,
,,,683593.74728, -13.18431,
,,,684814.45040, -17.98431,
,,,686035.15352, -15.98431,
,,,687255.85664,  -9.18431,
,,,688476.55976, -14.78431,
,,,689697.26288, -14.38431,
,,,690917.96600, -13.18431,
,,,692138.66912,  -7.18431,
,,,693359.37224,  -9.98431,
,,,694580.07536, -17.98431,
,,,695800.77848, -17.98431,
,,,697021.48160, -17.98431,
,,,698242.18472, -17.98431,
,,,699462.88784, -15.98431,
,,,700683.59096, -15.98431,
,,,701904.29408, -16.78431,
,,,703124.99720, -17.98431,
,,,704345.70032, -15.98431,
,,,705566.40344, -15.18431,
,,,706787.10656, -14.78431,
,,,708007.80968, -17.98431,
,,,709228.51280, -17.98431,
,,,710449.21592, -17.98431,
,,,711669.91904, -17.58431,
,,,712890.62216, -17.58431,
,,,714111.32528, -16.78431,
,,,715332.02840, -17.98431,
,,,716552.73152, -17.98431,
,,,717773.43464, -17.98431,
,,,718994.13776, -17.98431,
,,,720214.84088, -17.58431,
,,,721435.54400, -17.98431,
,,,722656.24712, -17.98431,
,,,723876.95024, -15.18431,
,,,725097.65336, -17.98431,
,,,726318.35648, -12.38431,
,,,727539.05960, -17.98431,
,,,728759.76272, -17.98431,
,,,729980.46584, -17.58431,
,,,731201.16896, -17.98431,
,,,732421.87208, -14.78431,
,,,733642.57520, -17.98431,
,,,734863.27832, -17.98431,
,,,736083.98144, -17.58431,
,,,737304.68456, -15.98431,
,,,738525.38768, -17.58431,
,,,739746.09080, -14.78431,
,,,740966.79392, -17.98431,
,,,742187.49704, -17.98431,
,,,743408.20016, -15.98431,
,,,744628.90328, -15.98431,
,,,745849.60640, -13.18431,
,,,747070.30952, -11.98431,
,,,748291.01264, -13.98431,
,,,749511.71576, -17.98431,
,,,750732.41888, -17.98431,
,,,751953.12200, -12.78431,
,,,753173.82512, -17.98431,
,,,754394.52824, -17.58431,
,,,755615.23136, -17.98431,
,,,756835.93448, -17.58431,
,,,758056.63760, -17.98431,
,,,759277.34072, -17.98431,
,,,760498.04384, -17.98431,
,,,761718.74696, -17.98431,
,,,762939.45008, -17.98431,
,,,764160.15320, -17.98431,
,,,765380.85632, -16.78431,
,,,766601.55944, -17.98431,
,,,767822.26256, -17.98431,
,,,769042.96568, -17.98431,
,,,770263.66880, -17.98431,
,,,771484.37192, -17.98431,
,,,772705.07504, -13.18431,
,,,773925.77816, -17.98431,
,,,775146.48128, -17.98431,
,,,776367.18440, -17.98431,
,,,777587.88752, -17.58431,
,,,778808.59064, -17.98431,
,,,780029.29376, -17.98431,
,,,781249.99688, -16.78431,
,,,782470.70000, -15.98431,
,,,783691.40312, -17.58431,
,,,784912.10624, -15.98431,
,,,786132.80936, -15.18431,
,,,787353.51248, -17.98431,
,,,788574.21560, -17.98431,
,,,789794.91872, -17.98431,
,,,791015.62184, -17.98431,
,,,792236.32496, -17.98431,
,,,793457.02808, -15.98431,
,,,794677.73120, -17.98431,
,,,795898.43432, -14.78431,
,,,797119.13744, -16.78431,
,,,798339.84056, -17.98431,
,,,799560.54368, -11.18431,
,,,800781.24680, -16.78431,
,,,802001.94992, -17.98431,
,,,803222.65304, -17.98431,
,,,804443.35616, -17.98431,
,,,805664.05928, -17.98431,
,,,806884.76240, -16.78431,
,,,808105.46552, -11.98431,
,,,809326.16864, -17.98431,
,,,810546.87176, -14.78431,
,,,811767.57488, -17.98431,
,,,812988.27800, -17.98431,
,,,814208.98112, -17.98431,
,,,815429.68424, -17.58431,
,,,816650.38736, -17.98431,
,,,817871.09048, -10.78431,
,,,819091.79360, -17.58431,
,,,820312.49672, -11.98431,
,,,821533.19984, -15.98431,
,,,822753.90296, -17.98431,
,,,823974.60608, -15.98431,
,,,825195.30920, -15.18431,
,,,826416.01232, -15.18431,
,,,827636.71544, -13.58431,
,,,828857.41856, -17.98431,
,,,830078.12168, -14.78431,
,,,831298.82480, -17.98431,
,,,832519.52792, -13.18431,
,,,833740.23104, -13.18431,
,,,834960.93416, -17.98431,
,,,836181.63728, -17.98431,
,,,837402.34040, -17.98431,
,,,838623.04352, -17.98431,
,,,839843.74664, -17.98431,
,,,841064.44976, -14.78431,
,,,842285.15288, -17.98431,
,,,843505.85600, -17.98431,
,,,844726.55912, -17.98431,
,,,845947.26224, -17.98431,
,,,847167.96536, -17.98431,
,,,848388.66848, -17.98431,
,,,849609.37160, -17.98431,
,,,850830.07472, -15.98431,
,,,852050.77784, -17.58431,
,,,853271.48096, -17.98431,
,,,854492.18408, -17.58431,
